{
    "success": true,
    "data": {
        "name": "M13",
        "language": "cs",
        "menuType": 0,
        "menuColumns": 1,
        "headerColor": "#2b2a28",
        "headerTextColor": "#ffffff",
        "menuColor": "#2b2a28",
        "menuTextColor": "#f2f2f2",
        "contentColor": "#222222",
        "contentTextColor": "#cccccc",
        "bgImage": null,
        "menuHeaderImage": null,
        "logo": "app-data/1102/logo-white.png",
        "onlyLogo": true,
        "loadingImage": "app-data/1102/loading-image.png",
        "vouchersUse": false,
        "searchUse": false,
        "photoReporterUse": false,
        "photoReporterEmail": null,
        "collapsingHeader": false,
        "showAboutApp": true,
        "showAdClose": true,
        "adMobEnabled": false,
        "androidAdUnitId": null,
        "iosAdUnitId": null,
        "externalLinks": false,
        "customIntroPage": null,
        "loginUrls": null,
        "fbLoginUrls": null,
        "loginPage": false,
        "loginMethods": null,
        "loginText": null,
        "loginColor": "#0086c0",
        "registerText": null,
        "registerColor": "#0086c0",
        "pinCode": null,
        "favoritesType": "article",
        "favoritesColor": "#ff0000",
        "photoReportApp": false,
        "photoReportAppEmails": null,
        "regionNotificationsEnabled": true,
        "notificationRegions": null,
        "css": "h2 {\n    color: #f2d400;\n    font-size: 20px;\n}\n\nh3, a {\n    color: #ffffff;\n}\n\nh4 {\n    color: #ffffff;\n    font-size: 16px !important;\n}\n\n.button {\n    width: 80%;\n    margin: 0 auto;\n    display: table;\n    padding: 10px;\n    padding-left: 25px;\n    padding-right: 25px;\n    color: #2b2a28;\n    text-align: center;\n    text-decoration: none;\n    font-weight: bold;\n    border-radius: 8px;\n    opacity: 0.9;\n    background-color: #ffffff;\n}\n\n.btn {\n    width: 80%;\n    margin: 0 auto;\n    display: table;\n    padding: 10px;\n    padding-left: 25px;\n    padding-right: 25px;\n    color: #2b2a28;\n    text-align: center;\n    text-decoration: none;\n    font-weight: bold;\n    border-radius: 8px;\n    opacity: 0.9;\n    background-color: #ffffff;\n}\n\n.medium-button {\n    display: block;\n    padding: 10px;\n    color: #2b2a28;\n    margin-left: 20px;\n    margin-right: 20px;\n    text-align: center;\n    text-decoration: none;\n    font-weight: bold;\n    border-radius: 30px;\n    opacity: 0.9;\n    background-color: #ffffff;\n}\n\n.big-button {\n    display: block;\n    padding: 10px;\n    color: #2b2a28;\n    text-align: center;\n    text-decoration: none;\n    font-weight: bold;\n    border-radius: 30px;\n    opacity: 0.9;\n    background-color: #ffffff;\n}\n\nh4 {\n    font-size: 18px;\n    padding: 4px;\n    margin: 0;\n}\n\nul {\n    list-style: none;\n    padding-left: 20px;\n}\n\nol {\n    padding-left: 25px;\n}\n\nli {\n    margin: 8px 0;\n}\n\nul li::before {\n  content: \"\\2B24\";\n  color: #ffffff;\n  font-weight: bold;\n  display: inline-block;\n  font-size: 0.75em;\n  width: 1.5em;\n  margin-left: -1em;\n}\n\n.fb {\n    display: block;\n    background-color: #3B5998;\n    padding: 10px;\n    color: #ffffff;\n    text-align: center;\n    text-decoration: none;\n    font-weight: bold;\n    border-radius: 8px;\n    margin-left: 5px;\n    margin-right: 5px;\n    opacity: 0.9;\n}\n\n.instagram {\n    display: block;\n    background-color: #e4405f;\n    padding: 10px;\n    color: #ffffff;\n    text-align: center;\n    text-decoration: none;\n    font-weight: bold;\n    border-radius: 8px;\n    margin-left: 5px;\n    margin-right: 5px;\n    opacity: 0.9;\n}\n\n.youtube {\n    display: block;\n    background-color: #c4302b;\n    padding: 10px;\n    color: #ffffff;\n    text-align: center;\n    text-decoration: none;\n    font-weight: bold;\n    border-radius: 8px;\n    margin-left: 5px;\n    margin-right: 5px;\n    opacity: 0.9;\n}\n\n.twitter {\n    display: block;\n    background-color: #00acee;\n    padding: 10px;\n    color: #ffffff;\n    text-align: center;\n    text-decoration: none;\n    font-weight: bold;\n    border-radius: 8px;\n    margin-left: 5px;\n    margin-right: 5px;\n    opacity: 0.9;\n}\n\n.linkedin {\n    display: block;\n    background-color: #0e76a8;\n    padding: 10px;\n    color: #ffffff;\n    text-align: center;\n    text-decoration: none;\n    font-weight: bold;\n    border-radius: 8px;\n    margin-left: 5px;\n    margin-right: 5px;\n    opacity: 0.9;\n}\n\n.pinterest {\n    display: block;\n    background-color: #bd2126;\n    padding: 10px;\n    color: #ffffff;\n    text-align: center;\n    text-decoration: none;\n    font-weight: bold;\n    border-radius: 8px;\n    margin-left: 5px;\n    margin-right: 5px;\n    opacity: 0.9;\n}",
        "advertisement": {
            "id": 1381,
            "image": null,
            "url": "",
            "position": "bottom",
            "visibility": false
        },
        "banners": null,
        "sections": [
            {
                "id": 2290,
                "name": "Úvod",
                "type": "page",
                "visibility": true,
                "icon": "ic_home_o.png",
                "color": null,
                "regionId": null,
                "showHeader": true,
                "onlyLoggedIn": false,
                "order": 0,
                "hideImages": 0,
                "link": null,
                "loggedInLink": null,
                "offlineLink": null,
                "externalLink": false,
                "rssLink": null,
                "css": null,
                "articles": [],
                "texts": [
                    {
                        "id": 23902,
                        "sectionId": 2290,
                        "content": "<h1 class=\"wnd-align-center\" style=\"text-align: center;\"><strong>PROGRAM</strong></h1>\n<div>\n<h2 class=\"wnd-align-center\" style=\"text-align: center;\"><strong><span class=\"wnd-font-size-110 wsw-23\">ÚNOR 2022<br /></span></strong></h2>\n</div>\n<div class=\"wnd-align-center\">\n<p class=\"wnd-align-left\">sobota 5.2. <strong>OD 18 HODIN UZAVŘENÁ SPOLEČNOST<br /></strong></p>\n<p class=\"wnd-align-left\">středa 9.2.<strong> POP ROCK HISTORY: </strong>19:00 - 21:00<strong> m13 kino </strong>/<strong> </strong>21:00 - 01:00 <strong>DJ Silent</strong></p>\n<p class=\"wnd-align-left\">pátek 11.2. <strong>DJ SILENT: RETRO ROCK 80's &amp; 90's</strong></p>\n<p class=\"wnd-align-left\"><span class=\"wnd-font-size-110\">sobota 12.2.<strong> JAŠIN BAND, RELIKVIE<br /></strong></span></p>\n<p class=\"wnd-align-left\"><span class=\"wnd-font-size-110\">středa 16.2. <strong>POP ROCK HISTORY: </strong>19:00 - 21:00<strong> m13 kino / </strong>21:00 - 01:00<strong> DJ Silent</strong></span></p>\n<p class=\"wnd-align-left\">čtvrtek 17.2. <strong>PIETRO FALCONE</strong></p>\n<p class=\"wnd-align-left\">pátek 18.2. <strong>DANDY ´S GUITAR &amp; CO.</strong></p>\n<p class=\"wnd-align-left\">sobota 19.2. <strong>PATENT, NAKLID</strong></p>\n<p class=\"wnd-align-left\">úterý 22.2. <strong>BITVA KAPEL: STOPIF vs. ROCKET BUNNY</strong></p>\n<p class=\"wnd-align-left\">středa 23.2.<strong> POP ROCK HISTORY: </strong>19:00 - 21:00<strong> m13 kino /</strong> 21:00 - 01:00<strong> DJ Silent</strong></p>\n<p class=\"wnd-align-left\">pátek 25.2. <strong>DJ SILENT: OLDIES BUT GOLDIES</strong><strong><br /></strong></p>\n<p class=\"wnd-align-left\">sobota 26.2. <strong>V.P.O.ho</strong></p>\n<p class=\"wnd-align-left\"> </p>\n<h2 class=\"wnd-align-center\" style=\"text-align: center;\"><span class=\"wsw-23\"><strong>BŘEZEN 2022</strong></span></h2>\n<p class=\"wnd-align-left\">čtvrtek 3.3. <strong>PIETRO FALCONE</strong></p>\n<p class=\"wnd-align-left\">pátek 4.3. <strong>ELLEN LENSKÁ &amp; BAND, NEŠVILSKÝ KRÚŽEK</strong></p>\n<p class=\"wnd-align-left\">sobota 5.3.<strong> </strong><strong>DJ SILENT: RETRO ROCK 80's &amp; 90's</strong><strong><br /></strong></p>\n<p class=\"wnd-align-left\">pátek 11.3. <strong>BIXLEY - večírek MDŽ</strong></p>\n<p class=\"wnd-align-left\">čtvrtek 17.3. <strong>PIETRO FALCONE<br /></strong></p>\n<p class=\"wnd-align-left\"><strong>pátek 18.3. REZERVOVÁNO<br /></strong></p>\n<p class=\"wnd-align-left\">sobota 19.3.<strong> JAŠIN BAND, RELIKVIE</strong></p>\n<p class=\"wnd-align-left\">čtvrtek 24.3. <strong>JOHNNY CASH REVIVAL</strong></p>\n<p class=\"wnd-align-left\">pátek 25.3. <strong>DR.DOLL, PEFER JAM, 21 GRAMŮ</strong></p>\n<p class=\"wnd-align-left\">sobota 26.3. <strong>LORD ROCK, RHEIA, NASAL DROPS</strong></p>\n<p class=\"wnd-align-left\">čtvrtek 31.3. <strong>PIETRO FALCONE<br /></strong></p>\n<p class=\"wnd-align-left\"><strong> </strong></p>\n<h2 class=\"wnd-align-center\" style=\"text-align: center;\"><strong><span class=\"wsw-23\">DUBEN 2022</span></strong></h2>\n<p class=\"wnd-align-left\">sobota 2.4. <strong>MANIAC, PRYOR</strong></p>\n<p class=\"wnd-align-left\">sobota 9.4. <strong>TERESTIAL</strong></p>\n<p class=\"wnd-align-left\">sobota 16.4. <strong>HEADFIRE, THE PANT</strong></p>\n<p class=\"wnd-align-left\">pátek 22.4. <strong>ZYLWAR</strong></p>\n<p class=\"wnd-align-left\">sobota 23.4. <strong>BASTARD</strong></p>\n<p class=\"wnd-align-left\">sobota 30.4. <strong>TONAL CONSTRUCT, PERSONAL SIGNET, ŠAŠCI V MANÉŽI</strong></p>\n<p class=\"wnd-align-left\"> </p>\n<h2 class=\"wnd-align-center\" style=\"text-align: center;\"><strong><span class=\"wsw-23\">KVĚTEN 2022</span></strong></h2>\n<p class=\"wnd-align-left\">pátek 6.5. <strong>ROSA NOCTURNA, RISSLA<br /></strong></p>\n<p class=\"wnd-align-left\">sobota 7.5. <strong>ALROXX</strong></p>\n<p class=\"wnd-align-left\">pátek 13.5. <strong>FILTHYMINDS, STREETMACHINE, DEADRAMS, DEFORM</strong></p>\n<p class=\"wnd-align-center\"> </p>\n<h2 style=\"text-align: center;\"><strong><span class=\"wsw-23\">ČERVEN 2022</span></strong></h2>\n<p class=\"wnd-align-left\"><span class=\"wsw-10\">sobota 11.6. <strong>PROTECTOR, GÖTTERDÄMMERUNG, D.O.P.</strong></span></p>\n<p class=\"wnd-align-left\">sobota 25.6. <strong>EXTREME AGE</strong></p>\n</div>",
                        "link": null,
                        "order": 2,
                        "clickable": true,
                        "articleId": 0
                    }
                ],
                "images": [
                    {
                        "id": 23901,
                        "sectionId": 2290,
                        "content": "app-data/1102/logo-main.jpeg",
                        "link": null,
                        "order": 1,
                        "clickable": true,
                        "articleId": 0
                    }
                ],
                "videos": [],
                "fields": [],
                "fieldItems": [],
                "programs": [],
                "email": null,
                "confirm": null,
                "gdprText": null,
                "latitude": null,
                "longitude": null,
                "code": null,
                "pinCode": null,
                "favorites": false,
                "lockScroll": false,
                "advertisement": {
                    "id": 1382,
                    "image": null,
                    "url": "",
                    "position": "bottom",
                    "visibility": false
                }
            },
            {
                "id": 2291,
                "name": "Jídelní lístek",
                "type": "link",
                "visibility": true,
                "icon": "ic_food.png",
                "color": null,
                "regionId": null,
                "showHeader": false,
                "onlyLoggedIn": false,
                "order": 1,
                "hideImages": 0,
                "link": "https://www.m13.cz/jidelni-listek/",
                "loggedInLink": null,
                "offlineLink": null,
                "externalLink": false,
                "rssLink": null,
                "css": ".l-h {\n    display: none;\n}\n.l-f {\n    display: none;\n}",
                "articles": [],
                "texts": [],
                "images": [],
                "videos": [],
                "fields": [],
                "fieldItems": [],
                "programs": [],
                "email": null,
                "confirm": null,
                "gdprText": null,
                "latitude": null,
                "longitude": null,
                "code": null,
                "pinCode": null,
                "favorites": false,
                "lockScroll": false,
                "advertisement": {
                    "id": 1383,
                    "image": null,
                    "url": "",
                    "position": "bottom",
                    "visibility": false
                }
            },
            {
                "id": 2292,
                "name": "Nápojový lístek",
                "type": "link",
                "visibility": true,
                "icon": "ic_glass.png",
                "color": null,
                "regionId": null,
                "showHeader": true,
                "onlyLoggedIn": false,
                "order": 2,
                "hideImages": 0,
                "link": "https://www.m13.cz/napojovy-listek/",
                "loggedInLink": null,
                "offlineLink": null,
                "externalLink": false,
                "rssLink": null,
                "css": ".l-h {\n    display: none;\n}\n.l-f {\n    display: none;\n}",
                "articles": [],
                "texts": [],
                "images": [],
                "videos": [],
                "fields": [],
                "fieldItems": [],
                "programs": [],
                "email": null,
                "confirm": null,
                "gdprText": null,
                "latitude": null,
                "longitude": null,
                "code": null,
                "pinCode": null,
                "favorites": false,
                "lockScroll": false,
                "advertisement": {
                    "id": 1384,
                    "image": null,
                    "url": "",
                    "position": "bottom",
                    "visibility": false
                }
            },
            {
                "id": 2293,
                "name": "Pro kapely",
                "type": "page",
                "visibility": true,
                "icon": "ic_people.png",
                "color": null,
                "regionId": null,
                "showHeader": true,
                "onlyLoggedIn": false,
                "order": 3,
                "hideImages": 0,
                "link": null,
                "loggedInLink": null,
                "offlineLink": null,
                "externalLink": false,
                "rssLink": null,
                "css": null,
                "articles": [],
                "texts": [
                    {
                        "id": 23903,
                        "sectionId": 2293,
                        "content": "<h2 style=\"text-align: center;\"><strong>ZÁVAZNÉ PODMÍNKY KLUBU m13 ROCK HELL platné od 1.9. 2019</strong></h2>\n<p>!! Nejsme realitka proto klub nepronajímáme! Pouze poskytujeme prostor pro akce a koncerty !!</p>\n<p><strong>POŘÁDÁNÍ AKCÍ PÁTEK, SOBOTA:</strong><br />Prvních 35 lístků jde do klubu + 25% z částky nad výše uvedených 35 lístků!<br />Za to poskytneme sál, PA systém + kabely, stojany, mikrofony, zvukaře, výběr vstupného, personál, uvedení akce na měsíčním plakátu, FB klubu a webových stránkách. Minimální výše vstupného 100 Kč!!<br />V případě nižší návštěvy účinkující nic nehradí!!!<br /><span class=\"wsw-11\" style=\"color: #cc5a5a;\"><strong>GUEST LIST NEAKCEPTUJEME!!!</strong></span><br /><br /><br /><strong>POŘÁDÁNÍ AKCÍ PONDĚLÍ-ČTVRTEK:<br /><span class=\"wsw-11\" style=\"color: #cc5a5a;\">AKCE: \"HREJ ZA CENU ZVUKAŘE\"  -  platí do konce roku 2021!</span></strong><br />Klub poskytne sál, PA systém + kabely, stojany, mikrofony, zvukaře, personál, uvedení akce na měsíčním plakátu, FB klubu a webových stránkách.<br />Účinkující hradí poplatek 3 500 Kč (zvukař, výběr vstupného + náklady spojené s hraním). Tento poplatek je hrazen před začátkem akce!<br />Minimální výše vstupného je 70 Kč!! Guest-list je na pořádající kapele!<br /><br /><strong>Ze strany účinkujících požadujeme:</strong><br />PLAYLIST (s uvedením autorů skladeb) event. čestné prohlášení o autorství skladeb - pro OSU, musí být zaslán elektronicky nebo vypsán do formuláře min. 14 dní před akcí.<br />Jestliže si kapela zajistí výrobu a výlep plakátů sama, jako i výrobu jakýchkoli tiskovin a materiálů týkajících se klubu m13, vyhrazuje si tento právo danou tiskovinu schválit či vetovat před jejím zveřejněním.<br />Z tohoto důvodu je umělec nebo kapela povinna předložit tyto materiály minimálně 14 dní před zveřejněním!!!<br />Toto se týká i jakýchkoli materiálů v elektronické podobě (Facebook, Bandzone apod.).<br />Tyto materiály musí obsahovat: přesný název klubu, adresu klubu + logo klubu:<br />m13 rock hell<br />Benešova 22<br />602 00 Brno<br />+ www stránky<br /><br />Jakékoli změny musí být oznámeny včas a písemně, min. týden dopředu!<br />Pokud se tak nestane, nemá účinkující nárok na výše uvedenou odměnu.<br />Přísný zákaz používání veškeré pyrotechniky a otevřeného ohně v prostorách klubu + kouření v průběhu produkce.<br />Nedodržení čehokoli z výše uvedeného, může mít za následek předčasné zrušení akce!<br />Přísný zákaz konzumace vlastního jídla a pití v prostorách klubu.<br />Další akce jako jam session, workshopy, různé oslavy, soukromé večírky atd. je nutné domluvit si osobně!</p>",
                        "link": null,
                        "order": 1,
                        "clickable": true,
                        "articleId": 0
                    }
                ],
                "images": [],
                "videos": [],
                "fields": [],
                "fieldItems": [],
                "programs": [],
                "email": null,
                "confirm": null,
                "gdprText": null,
                "latitude": null,
                "longitude": null,
                "code": null,
                "pinCode": null,
                "favorites": false,
                "lockScroll": false,
                "advertisement": {
                    "id": 1385,
                    "image": null,
                    "url": "",
                    "position": "bottom",
                    "visibility": false
                }
            },
            {
                "id": 2294,
                "name": "Fotogalerie",
                "type": "gallery",
                "visibility": true,
                "icon": "ic_images.png",
                "color": null,
                "regionId": null,
                "showHeader": true,
                "onlyLoggedIn": false,
                "order": 4,
                "hideImages": 0,
                "link": null,
                "loggedInLink": null,
                "offlineLink": null,
                "externalLink": false,
                "rssLink": null,
                "css": null,
                "articles": [],
                "texts": [],
                "images": [
                    {
                        "id": 23890,
                        "sectionId": 2294,
                        "content": "app-data/1102/M13-1.jpeg",
                        "link": null,
                        "order": 1,
                        "clickable": true,
                        "articleId": 0
                    },
                    {
                        "id": 23891,
                        "sectionId": 2294,
                        "content": "app-data/1102/M13-62.jpeg",
                        "link": null,
                        "order": 2,
                        "clickable": true,
                        "articleId": 0
                    },
                    {
                        "id": 23892,
                        "sectionId": 2294,
                        "content": "app-data/1102/M13-66.jpeg",
                        "link": null,
                        "order": 3,
                        "clickable": true,
                        "articleId": 0
                    },
                    {
                        "id": 23893,
                        "sectionId": 2294,
                        "content": "app-data/1102/M13-71.jpeg",
                        "link": null,
                        "order": 4,
                        "clickable": true,
                        "articleId": 0
                    },
                    {
                        "id": 23894,
                        "sectionId": 2294,
                        "content": "app-data/1102/M13-73.jpeg",
                        "link": null,
                        "order": 5,
                        "clickable": true,
                        "articleId": 0
                    },
                    {
                        "id": 23895,
                        "sectionId": 2294,
                        "content": "app-data/1102/M13-74.jpeg",
                        "link": null,
                        "order": 6,
                        "clickable": true,
                        "articleId": 0
                    },
                    {
                        "id": 23896,
                        "sectionId": 2294,
                        "content": "app-data/1102/M13-75.jpeg",
                        "link": null,
                        "order": 7,
                        "clickable": true,
                        "articleId": 0
                    },
                    {
                        "id": 23897,
                        "sectionId": 2294,
                        "content": "app-data/1102/M13-76-0.jpeg",
                        "link": null,
                        "order": 8,
                        "clickable": true,
                        "articleId": 0
                    },
                    {
                        "id": 23898,
                        "sectionId": 2294,
                        "content": "app-data/1102/M13-77-8.jpeg",
                        "link": null,
                        "order": 9,
                        "clickable": true,
                        "articleId": 0
                    }
                ],
                "videos": [],
                "fields": [],
                "fieldItems": [],
                "programs": [],
                "email": null,
                "confirm": null,
                "gdprText": null,
                "latitude": null,
                "longitude": null,
                "code": null,
                "pinCode": null,
                "favorites": false,
                "lockScroll": false,
                "advertisement": {
                    "id": 1386,
                    "image": null,
                    "url": "",
                    "position": "bottom",
                    "visibility": false
                }
            },
            {
                "id": 2295,
                "name": "Napište nám",
                "type": "form",
                "visibility": true,
                "icon": "ic_pencil.png",
                "color": null,
                "regionId": null,
                "showHeader": true,
                "onlyLoggedIn": false,
                "order": 5,
                "hideImages": 0,
                "link": null,
                "loggedInLink": null,
                "offlineLink": null,
                "externalLink": false,
                "rssLink": null,
                "css": null,
                "articles": [],
                "texts": [],
                "images": [],
                "videos": [],
                "fields": [
                    {
                        "id": 1160,
                        "sectionId": 2295,
                        "name": "Máte nějaký dotaz? Napište nám!",
                        "type": "title",
                        "required": false,
                        "order": 1
                    },
                    {
                        "id": 1161,
                        "sectionId": 2295,
                        "name": "Jméno a Příjmení",
                        "type": "text",
                        "required": false,
                        "order": 2
                    },
                    {
                        "id": 1162,
                        "sectionId": 2295,
                        "name": "E-mail",
                        "type": "text",
                        "required": false,
                        "order": 3
                    },
                    {
                        "id": 1163,
                        "sectionId": 2295,
                        "name": "Telefon",
                        "type": "text",
                        "required": false,
                        "order": 4
                    },
                    {
                        "id": 1164,
                        "sectionId": 2295,
                        "name": "Váš dotaz",
                        "type": "textarea",
                        "required": false,
                        "order": 5
                    }
                ],
                "fieldItems": [],
                "programs": [],
                "email": "m13klub@seznam.cz",
                "confirm": "Odeslat",
                "gdprText": "Odesláním formuláře souhlasíte se <a href='https://www.appkee-manager.cz/personal-data-protection/'>zpracováním osobních údajů</a>",
                "latitude": null,
                "longitude": null,
                "code": null,
                "pinCode": null,
                "favorites": false,
                "lockScroll": false,
                "advertisement": {
                    "id": 1387,
                    "image": null,
                    "url": "",
                    "position": "bottom",
                    "visibility": false
                }
            },
            {
                "id": 2297,
                "name": "Kde nás najdete",
                "type": "gps",
                "visibility": true,
                "icon": "ic_location.png",
                "color": null,
                "regionId": null,
                "showHeader": true,
                "onlyLoggedIn": false,
                "order": 6,
                "hideImages": 0,
                "link": null,
                "loggedInLink": null,
                "offlineLink": null,
                "externalLink": false,
                "rssLink": null,
                "css": null,
                "articles": [],
                "texts": [],
                "images": [],
                "videos": [],
                "fields": [],
                "fieldItems": [],
                "programs": [],
                "email": null,
                "confirm": null,
                "gdprText": null,
                "latitude": "49.1920042",
                "longitude": "16.6128208",
                "code": null,
                "pinCode": null,
                "favorites": false,
                "lockScroll": false,
                "advertisement": {
                    "id": 1389,
                    "image": null,
                    "url": "",
                    "position": "bottom",
                    "visibility": false
                }
            },
            {
                "id": 2296,
                "name": "Kontakt",
                "type": "page",
                "visibility": true,
                "icon": "ic_address_book_o.png",
                "color": null,
                "regionId": null,
                "showHeader": true,
                "onlyLoggedIn": false,
                "order": 7,
                "hideImages": 0,
                "link": null,
                "loggedInLink": null,
                "offlineLink": null,
                "externalLink": false,
                "rssLink": null,
                "css": null,
                "articles": [],
                "texts": [
                    {
                        "id": 23906,
                        "sectionId": 2296,
                        "content": "<h2 style=\"text-align: center;\"><span class=\"wsw-02\"><strong><br />m13 rock hell</strong></span></h2>\n<p style=\"text-align: center;\">Benešova 22, Brno, 602 00<br />Otevřeno denně:<br /><strong>po - ne: 12:00 - ?<br /><br /></strong></p>",
                        "link": null,
                        "order": 2,
                        "clickable": true,
                        "articleId": 0
                    },
                    {
                        "id": 23907,
                        "sectionId": 2296,
                        "content": "<p><a class=\"button\" href=\"tel:+420 720 992 575\">+420 720 992 575</a></p>\n<p><a class=\"button\" href=\"mailto:m13klub@seznam.cz\">m13klub@seznam.cz</a></p>",
                        "link": null,
                        "order": 3,
                        "clickable": true,
                        "articleId": 0
                    },
                    {
                        "id": 23908,
                        "sectionId": 2296,
                        "content": "<p> </p>\n<p><a class=\"fb\" href=\"https://www.facebook.com/klub.m13/\">FACEBOOK</a></p>\n<p><a class=\"instagram\" href=\"https://www.instagram.com/m13klub/\">INSTAGRAM</a></p>\n<p> </p>",
                        "link": null,
                        "order": 4,
                        "clickable": true,
                        "articleId": 0
                    },
                    {
                        "id": 23909,
                        "sectionId": 2296,
                        "content": "<p><iframe style=\"border: none;\" src=\"https://frame.mapy.cz/s/gufobodase\" width=\"100%\" height=\"280\" frameborder=\"0\"></iframe></p>",
                        "link": null,
                        "order": 5,
                        "clickable": true,
                        "articleId": 0
                    }
                ],
                "images": [
                    {
                        "id": 23905,
                        "sectionId": 2296,
                        "content": "app-data/1102/m13.jpeg",
                        "link": null,
                        "order": 1,
                        "clickable": true,
                        "articleId": 0
                    }
                ],
                "videos": [],
                "fields": [],
                "fieldItems": [],
                "programs": [],
                "email": null,
                "confirm": null,
                "gdprText": null,
                "latitude": null,
                "longitude": null,
                "code": null,
                "pinCode": null,
                "favorites": false,
                "lockScroll": false,
                "advertisement": {
                    "id": 1388,
                    "image": null,
                    "url": "",
                    "position": "bottom",
                    "visibility": false
                }
            },
            {
                "id": 2298,
                "name": "Obchodní podmínky",
                "type": "page",
                "visibility": true,
                "icon": "ic_book.png",
                "color": null,
                "regionId": null,
                "showHeader": false,
                "onlyLoggedIn": false,
                "order": 8,
                "hideImages": 0,
                "link": null,
                "loggedInLink": null,
                "offlineLink": null,
                "externalLink": false,
                "rssLink": null,
                "css": null,
                "articles": [],
                "texts": [
                    {
                        "id": 23904,
                        "sectionId": 2298,
                        "content": "<h2 style=\"text-align: center;\">OBCHODNÍ PODMÍNKY</h2>\n<p>SPOLEČNOST MUSIC &amp; GASTRO s.r.o. NABÍZÍ ROZVÁŽKOVOU SLUŽBU DO OBYDLENÝCH ČÁSTÍ MĚSTA BRNA A BLÍZKÉHO OKOLÍ (viz seznam a ceny)</p>\n<p>Minimální objednávka pro rozvoz je 150 ,- Kč. Okrajové části města mají stanovenu částku za dopravné, které se připočítává k ceně objednávky. Vyhrazujeme si právo nerozvážet do některých oblastí.</p>\n<h2 style=\"text-align: center;\">PLATEBNÍ PODMÍNKY</h2>\n<p>Za naše služby můžete platit v hotovosti, platebními kartami, stravenkami (na stravenky nevracíme) nebo bankovním převodem. Naši řidiči u sebe nemají větší hotovost. Prosíme, připravte si drobné.</p>\n<p>V případě platby v hotovosti při způsobu dodání kurýrní službou (náš rozvoz) je nutno platbu vyšší bankovkou od 1000,- Kč nahlásit při objednávání. Veškeré platby probíhají v české měně. Platby kartou musí být hlášeny předem při objednávce.</p>\n<h2 style=\"text-align: center;\">PRODUKTY</h2>\n<p>Nápoje a některé ingredience mohou být dočasně vyprodány. V těchto případech Vám bude nabídnuta alternativa. Nápoje a přílohy se rozváží pouze s jídlem.</p>\n<h2 style=\"text-align: center;\">PRODEJ OSOBÁM STARŠÍM 18 LET</h2>\n<p>Na těchto webových nabízíme prodej a rozvoz alkoholických nápojů, který je určen osobám starším osmnácti let. Osoby mladší osmnácti let mohou nakupovat pouze výrobky neobsahující alkohol.</p>\n<h2 style=\"text-align: center;\">ZÁRUKA 100% SPOKOJENOSTI</h2>\n<p>Společnost MUSIC &amp; GASTRO s.r.o. dodává pokrmy vynikající kvality za použití nejčerstvějších a vždy vysoce kvalitních surovin. Pokud se i přesto stane, že nejste z jakéhokoliv důvodu spokojeni, poskytujeme výměnu produktu, slevu nebo vrácení peněz. Místem reklamace je provozovna m13 rock hell, Benešova 22, Brno, 602 00 nebo telefonicky +420 720 992 575.</p>\n<h2 style=\"text-align: center;\">AKCE, SPECIÁLNÍ NABÍDKY A SLEVY</h2>\n<p>Všechny akce, speciální nabídky a slevy musí být uplatněny při objednávce. Nelze požadovat zpětně. Každá akce, speciální nabídka nebo sleva má specifické podmínky použití, které jsou součástí nabídky a nelze je vzájemně kombinovat. Vyhrazujeme si právo kdykoliv odvolat, ukončit nebo zrušit jakoukoliv naši akci, speciální nabídku nebo slevu.</p>\n<h2 style=\"text-align: center;\">OBECNÉ INFORMACE</h2>\n<p>Nabízeným zbožím je veškeré zboží, které je presentováno na internetových stránkách www.m13.cz popis konkrétního zboží je připojen přímo u zboží. Cena zboží je vždy uvedena u každého zboží, a to včetně DPH.</p>\n<p>Smlouvu je možno uzavřít telefonicky - telefonická čísla pro objednávky jsou +420 720 992 575 nebo lze smlouvu uzavřít s použitím elektronických prostředků.</p>\n<p>Smlouva uzavřená s použitím elektronických prostředků (formulář na internetových stránkách www.m13.cz) bude uložena pouze po dobu nutnou pro vyřízení objednávky, kupujícímu (spotřebiteli) k ní bude umožněn přístup v době uzavírání smlouvy další následný přístup nebude umožněn. Smlouvu lze uzavřít v českém jazyce.</p>\n<p>Pro společnost MUSIC &amp; GASTRO s.r.o. nejsou závazné žádné kodexy chování kromě právních předpisů ČR. Společnost MUSIC &amp; GASTRO s.r.o. si vyhrazuje právo neuzavřít smlouvu s kupujícími, kteří při předchozí objednávce odmítli řádně hradit cenu objednávky. Společnost MUSIC &amp; GASTRO s.r.o. si vyhrazuje právo neuzavřít smlouvu s dodáním do některých oblastí, které jsou v daném období rizikové (například špatná sjízdnost vozovek v některých obcích a ročních obdobých).</p>\n<p>Odpověď strany této smlouvy, podle § 1740 odst. 3 občanského zákoníku, s dodatkem nebo odchylkou, není přijetím nabídky na uzavření této smlouvy, ani když podstatně nemění podmínky nabídky. Strany smlouvy si musí navzájem změny odsouhlasit. Pro vyloučení pochybností se uvádí, že žádný závazek mezi smluvními stranami není závazkem podle § 1980 občanského zákoníku. Ukáže-li se některé z ustanovení těchto podmínek zdánlivým (nicotným), posoudí se vliv této vady na ostatní ustanovení podmínek obdobně podle § 576 občanského zákoníku.</p>\n<p>Přijetím objednávky ze strany MUSIC &amp; GASTRO s.r.o. je telefonické odsouhlasení v případě telefonické objednávky. V případě objednávky přes internetový formulář se objednávka bere ze strany MUSIC &amp; GASTRO s.r.o. za přijatou, pokud MUSIC &amp; GASTRO s.r.o. nesdělí telefonicky jinak. Po přijetí objednávky ze strany MUSIC &amp; GASTRO s.r.o. ji může kupující zrušit (stornovat) pouze se souhlasem MUSIC &amp; GASTRO s.r.o. . Pokud kupující uvede při objednávání (kterýmkoliv způsobem) nesprávné kontaktní údaje, je MUSIC &amp; GASTRO s.r.o. oprávněna objednávku zrušit (stornovat).</p>\n<p>Potraviny jsou určeny pro okamžitou konzumaci. U baleného zboží v originálním obalu (zejména nápoje) je uvedena doba minimální trvanlivosti na obalu zboží. Vždy je nutné zakoupené zboží užívat na účely, pro které je výrobcem určeno (například potraviny jsou určeny k okamžité spotřebě, nikoliv k uskladnění).<br /><br /></p>\n<h2 style=\"text-align: center;\">OCHRANA OSOBNÍCH ÚDAJŮ</h2>\n<p>Kupující souhlasí se shromažďováním, uchováním a zpracováním osobních údajů poskytnutých správci (tj. MUSIC &amp; GASTRO s.r.o. ). Tento souhlas uděluje pro všechny údaje telefonicky předané, obsažené v objednávkovém formuláři či jinak předané, a to na dobu neurčitou. Kupující si je vědom svých práv podle § 12 a 21 zákona č. 101/2000 Sb., o ochraně osobních údajů. Všechny údaje jsou shromažďovány a zpracovávány výhradně pro účely identifikace klienta a k zařazení do databáze za účelem zasílání obchodních sdělení prostřednictvím elektronických prostředků dle zákona 480/2004 Sb. Údaje nebudou předávány dále s výjimkou předání veřejným orgánům v případě existujícího incidentu a s výjimkou osob zavázaných mlčenlivostí.<br /><br /><strong>PROVOZOVATEL:</strong><br />MUSIC &amp; GASTRO s.r.o.<br />IČ: 080 17 883<br />Dolnoměcholupská 217/8, 102 00 PRAHA</p>",
                        "link": null,
                        "order": 1,
                        "clickable": true,
                        "articleId": 0
                    }
                ],
                "images": [],
                "videos": [],
                "fields": [],
                "fieldItems": [],
                "programs": [],
                "email": null,
                "confirm": null,
                "gdprText": null,
                "latitude": null,
                "longitude": null,
                "code": null,
                "pinCode": null,
                "favorites": false,
                "lockScroll": false,
                "advertisement": {
                    "id": 1390,
                    "image": null,
                    "url": "",
                    "position": "bottom",
                    "visibility": false
                }
            }
        ]
    },
    "error": null
}