{
    "success": true,
    "data": {
        "name": "Absolvent OU",
        "menuType": 0,
        "headerColor": "#ffffff",
        "headerTextColor": "#505050",
        "menuColor": "#282d36",
        "menuTextColor": "#f2f2f2",
        "contentColor": "#ffffff",
        "contentTextColor": "#444444",
        "bgImage": null,
        "menuHeaderImage": null,
        "logo": "app-data/1041/logo.png",
        "onlyLogo": true,
        "loadingImage": "app-data/1041/image-ou.jpg",
        "vouchersUse": false,
        "searchUse": false,
        "photoReporterUse": false,
        "photoReporterEmail": null,
        "collapsingHeader": false,
        "showAboutApp": true,
        "showAdClose": true,
        "adMobEnabled": false,
        "androidAdUnitId": null,
        "iosAdUnitId": null,
        "externalLinks": false,
        "customIntroPage": null,
        "loginUrls": null,
        "loginPage": false,
        "loginText": null,
        "loginColor": "#0086c0",
        "favoritesType": "article",
        "favoritesColor": "#ff0000",
        "photoReportApp": false,
        "photoReportAppEmails": null,
        "css": "h2 {\n    color: #282d36;\n    font-size: 20px;\n}\n\nh3, a {\n    color: #00b7cf;\n}\n\nh4 {\n    color: #282d36;\n}\n\n.button {\n    width: 80%;\n    margin: 0 auto;\n    display: table;\n    padding: 10px;\n    padding-left: 25px;\n    padding-right: 25px;\n    color: #ffffff;\n    text-align: center;\n    text-decoration: none;\n    font-weight: bold;\n    border-radius: 8px;\n    opacity: 0.9;\n    background-color: #00b7cf;\n}\n\n.medium-button {\n    display: block;\n    padding: 10px;\n    color: #ffffff;\n    margin-left: 20px;\n    margin-right: 20px;\n    text-align: center;\n    text-decoration: none;\n    font-weight: bold;\n    border-radius: 30px;\n    opacity: 0.9;\n    background-color: #00b7cf;\n}\n\n.big-button {\n    display: block;\n    padding: 10px;\n    color: #ffffff;\n    text-align: center;\n    text-decoration: none;\n    font-weight: bold;\n    border-radius: 30px;\n    opacity: 0.9;\n    background-color: #00b7cf;\n}\n\nh4 {\n    font-size: 18px;\n    padding: 4px;\n    margin: 0;\n}\n\nul {\n    list-style: none;\n    padding-left: 20px;\n}\n\nol {\n    padding-left: 25px;\n}\n\nli {\n    margin: 8px 0;\n}\n\nul li::before {\n  content: \"\\2B24\";\n  color: #282d36;\n  font-weight: bold;\n  display: inline-block;\n  font-size: 0.85em;\n  width: 1.5em;\n  margin-left: -1em;\n}\n\n.fb {\n    display: block;\n    background-color: #3B5998;\n    padding: 10px;\n    color: #ffffff;\n    text-align: center;\n    text-decoration: none;\n    font-weight: bold;\n    border-radius: 8px;\n    margin-left: 5px;\n    margin-right: 5px;\n    opacity: 0.9;\n}\n\n.instagram {\n    display: block;\n    background-color: #e4405f;\n    padding: 10px;\n    color: #ffffff;\n    text-align: center;\n    text-decoration: none;\n    font-weight: bold;\n    border-radius: 8px;\n    margin-left: 5px;\n    margin-right: 5px;\n    opacity: 0.9;\n}\n\n.youtube {\n    display: block;\n    background-color: #c4302b;\n    padding: 10px;\n    color: #ffffff;\n    text-align: center;\n    text-decoration: none;\n    font-weight: bold;\n    border-radius: 8px;\n    margin-left: 5px;\n    margin-right: 5px;\n    opacity: 0.9;\n}\n\n.twitter {\n    display: block;\n    background-color: #00acee;\n    padding: 10px;\n    color: #ffffff;\n    text-align: center;\n    text-decoration: none;\n    font-weight: bold;\n    border-radius: 8px;\n    margin-left: 5px;\n    margin-right: 5px;\n    opacity: 0.9;\n}\n\n.linkedin {\n    display: block;\n    background-color: #0e76a8;\n    padding: 10px;\n    color: #ffffff;\n    text-align: center;\n    text-decoration: none;\n    font-weight: bold;\n    border-radius: 8px;\n    margin-left: 5px;\n    margin-right: 5px;\n    opacity: 0.9;\n}",
        "advertisement": {
            "id": 481,
            "image": null,
            "url": "",
            "position": "bottom",
            "visibility": false
        },
        "banners": null,
        "sections": [
            {
                "id": 1176,
                "name": "Ostravská univerzita",
                "type": "page",
                "icon": "ic_city.png",
                "showHeader": true,
                "order": 1,
                "hideImages": 0,
                "link": null,
                "loggedInLink": null,
                "offlineLink": null,
                "externalLink": false,
                "rssLink": null,
                "articles": [],
                "texts": [
                    {
                        "id": 11618,
                        "sectionId": 1176,
                        "content": "<h2 style=\"text-align: center;\">Port&aacute;l absolventů<br />Ostravsk&eacute; univerzity</h2>",
                        "link": null,
                        "order": 0,
                        "clickable": true,
                        "articleId": 0
                    },
                    {
                        "id": 11620,
                        "sectionId": 1176,
                        "content": "<p>&nbsp;</p>\n<p><a class=\"button\" href=\"[section_id=1178]\">PRŮKAZKA ABSOLVENTA</a></p>\n<p>&nbsp;</p>",
                        "link": null,
                        "order": 2,
                        "clickable": true,
                        "articleId": 0
                    },
                    {
                        "id": 11621,
                        "sectionId": 1176,
                        "content": "<h3 class=\"p1\" style=\"text-align: center;\">Děn&iacute; na na&scaron;&iacute; univerzitě pro v&aacute;s promocemi rozhodně nekonč&iacute;!</h3>\n<p class=\"p1\">Na těchto str&aacute;nk&aacute;ch naleznete informace o pl&aacute;novan&yacute;ch i uplynul&yacute;ch univerzitn&iacute;ch akc&iacute;ch a setk&aacute;n&iacute;ch, přehled o těch nejaktu&aacute;lněj&scaron;&iacute;ch pracovn&iacute;ch i vzděl&aacute;vac&iacute;ch př&iacute;ležitostech či řadu inspirativn&iacute;ch př&iacute;běhů. Ať už v&aacute;s cesty zavedou kamkoli, vždy jako absolventi Ostravsk&eacute; univerzity můžete využ&iacute;t nespočet benefitů a služeb, mezi něž patř&iacute; mimo jin&eacute; i kari&eacute;rn&iacute;, soci&aacute;lně-pr&aacute;vn&iacute; a psychologick&eacute; poradenstv&iacute;.<br /><br /></p>",
                        "link": null,
                        "order": 4,
                        "clickable": true,
                        "articleId": 0
                    },
                    {
                        "id": 11623,
                        "sectionId": 1176,
                        "content": "<p><em>&ldquo;Jsme hrd&iacute;, že jako na&scaron;i absolventi reprezentujete Ostravskou univerzitu a jsme r&aacute;di, že můžeme slavit va&scaron;e &uacute;spěchy ve v&scaron;ech f&aacute;z&iacute;ch va&scaron;&iacute; kari&eacute;ry.&rdquo;</em></p>\n<div class=\"et_pb_row et_pb_row_4 et_pb_row_1-4_3-4\">\n<div class=\"et_pb_column et_pb_column_3_4 et_pb_column_9  et_pb_css_mix_blend_mode_passthrough et-last-child\">\n<div class=\"et_pb_module et_pb_text et_pb_text_3  et_pb_text_align_left et_pb_bg_layout_light\">\n<div class=\"et_pb_text_inner\">\n<p><strong>prof. Jan Lata</strong>, rektor Ostravsk&eacute; univerzity<br /><br /></p>\n</div>\n</div>\n</div>\n</div>",
                        "link": null,
                        "order": 6,
                        "clickable": true,
                        "articleId": 0
                    },
                    {
                        "id": 11626,
                        "sectionId": 1176,
                        "content": "<div class=\"et_pb_testimonial_description_inner\">\n<div class=\"et_pb_testimonial_content\">\n<h3 class=\"p1\"><em>&bdquo;Nejdůležitěj&scaron;&iacute; pro mě vždycky byla hudba, ne &uacute;spěchy a medaile&ldquo;</em></h3>\n<p class=\"p2\">Luk&aacute;&scaron; Vondr&aacute;ček (nar. 21. ř&iacute;jna 1986) začal ke klav&iacute;ru usedat již ve dvou letech a ve 4 letech měl sv&eacute; prvn&iacute; představen&iacute;. Po &uacute;spě&scaron;n&eacute;m turn&eacute; ve Spojen&yacute;ch st&aacute;tech americk&yacute;ch vydal svou prvn&iacute; desku ve věku 11 let a rok pot&eacute; začal studovat na Ostravsk&eacute; univerzitě d&iacute;ky rektorsk&eacute; v&yacute;jimce. Dosavadn&iacute;m vrcholem jeho klav&iacute;rn&iacute; kari&eacute;ry bylo v&iacute;tězstv&iacute; klav&iacute;rn&iacute; Soutěže kr&aacute;lovny Alžběty v belgick&eacute;m Bruselu v roce 2016, č&iacute;mž se zařadil po bok slavn&yacute;ch jmen, jako je Vladimir Ashkenazy nebo Leon Fleisher.</p>\n</div>\n</div>\n<p><span class=\"et_pb_testimonial_author\">Luk&aacute;&scaron; Vondr&aacute;ček</span></p>\n<p class=\"et_pb_testimonial_meta\"><span class=\"et_pb_testimonial_position\">absolvent</span><span class=\"et_pb_testimonial_separator\">,</span>&nbsp;<span class=\"et_pb_testimonial_company\">světov&yacute; klav&iacute;rista<br /><br /></span></p>",
                        "link": null,
                        "order": 8,
                        "clickable": true,
                        "articleId": 0
                    },
                    {
                        "id": 11628,
                        "sectionId": 1176,
                        "content": "<div class=\"et_pb_testimonial_description_inner\">\n<div class=\"et_pb_testimonial_content\">\n<h3 class=\"p1\"><em>&bdquo;Ostravsk&aacute; univerzita a ostravsk&aacute; televize jsou si bl&iacute;zko nejen adresou&ldquo;</em></h3>\n<p class=\"p2\">Tom&aacute;&scaron; &Scaron;iřina (31. ledna 1966) je absolventem tehdej&scaron;&iacute; ostravsk&eacute; Pedagogick&eacute; fakulty, kde studoval česk&yacute; jazyk a historii. Po studiu se začal věnovat pr&aacute;ci v m&eacute;di&iacute;ch a 11 let pracoval jako &scaron;&eacute;fredaktor jednoho z nejčteněj&scaron;&iacute;ch region&aacute;ln&iacute;ch den&iacute;ků: Moravskoslezsk&eacute;ho den&iacute;ku. Od roku 2013 je ředitelem Televizn&iacute;ho studia Ostrava (Česk&aacute; televize).</p>\n</div>\n</div>\n<p><span class=\"et_pb_testimonial_author\">Tom&aacute;&scaron; &Scaron;iřina</span></p>\n<p class=\"et_pb_testimonial_meta\"><span class=\"et_pb_testimonial_position\">absolvent</span><span class=\"et_pb_testimonial_separator\">,</span>&nbsp;<span class=\"et_pb_testimonial_company\">ředitel ostravsk&eacute;ho studia Česk&eacute; televizev</span></p>",
                        "link": null,
                        "order": 10,
                        "clickable": true,
                        "articleId": 0
                    }
                ],
                "images": [
                    {
                        "id": 11619,
                        "sectionId": 1176,
                        "content": "app-data/1041/4-mensi.jpg",
                        "link": null,
                        "order": 1,
                        "clickable": true,
                        "articleId": 0
                    },
                    {
                        "id": 11622,
                        "sectionId": 1176,
                        "content": "app-data/1041/benefity.jpg",
                        "link": null,
                        "order": 3,
                        "clickable": true,
                        "articleId": 0
                    },
                    {
                        "id": 11624,
                        "sectionId": 1176,
                        "content": "app-data/1041/prof.jpg",
                        "link": null,
                        "order": 5,
                        "clickable": true,
                        "articleId": 0
                    },
                    {
                        "id": 11625,
                        "sectionId": 1176,
                        "content": "app-data/1041/pan1.jpg",
                        "link": null,
                        "order": 7,
                        "clickable": true,
                        "articleId": 0
                    },
                    {
                        "id": 11627,
                        "sectionId": 1176,
                        "content": "app-data/1041/pan2.jpg",
                        "link": null,
                        "order": 9,
                        "clickable": true,
                        "articleId": 0
                    }
                ],
                "videos": [],
                "fields": [],
                "fieldItems": [],
                "programs": [],
                "email": null,
                "confirm": null,
                "gdprText": null,
                "latitude": null,
                "longitude": null,
                "code": null,
                "favorites": false,
                "advertisement": {
                    "id": 473,
                    "image": null,
                    "url": "",
                    "position": "bottom",
                    "visibility": false
                }
            },
            {
                "id": 1177,
                "name": "Aktuality",
                "type": "rss",
                "icon": "ic_rss.png",
                "showHeader": true,
                "order": 2,
                "hideImages": 0,
                "link": null,
                "loggedInLink": null,
                "offlineLink": null,
                "externalLink": false,
                "rssLink": "https://www.osu.cz/rss/cz/",
                "articles": [],
                "texts": [],
                "images": [],
                "videos": [],
                "fields": [],
                "fieldItems": [],
                "programs": [],
                "email": null,
                "confirm": null,
                "gdprText": null,
                "latitude": null,
                "longitude": null,
                "code": null,
                "favorites": false,
                "advertisement": {
                    "id": 474,
                    "image": null,
                    "url": "",
                    "position": "bottom",
                    "visibility": false
                }
            },
            {
                "id": 1179,
                "name": "Benefity",
                "type": "page",
                "icon": "ic_handshake_o.png",
                "showHeader": true,
                "order": 4,
                "hideImages": 0,
                "link": null,
                "loggedInLink": null,
                "offlineLink": null,
                "externalLink": false,
                "rssLink": null,
                "articles": [],
                "texts": [
                    {
                        "id": 11629,
                        "sectionId": 1179,
                        "content": "<div class=\"et_pb_module et_pb_text et_pb_text_0  et_pb_text_align_left et_pb_bg_layout_light\">\n<div class=\"et_pb_text_inner\">\n<h2 style=\"text-align: center;\">Kari&eacute;rn&iacute; poradenstv&iacute;&nbsp;</h2>\n<h3>Poradensk&eacute;ho centra OU mohou na&scaron;i absolventi využ&iacute;vat a to zcela zdarma. Stač&iacute; si domluvit term&iacute;n emailem.</h3>\n<p>Do poradny můžete přij&iacute;t za na&scaron;&iacute; kari&eacute;rn&iacute; poradkyn&iacute; na konzultace, nebo workshopy zaměřen&eacute; na v&aacute;&scaron; profesn&iacute; i osobn&iacute; rozvoj. Jste-li n&aacute;&scaron; student, nebo absolvent, využijte jejich zku&scaron;enost&iacute; z personalistiky a objednejte se na konzultaci.</p>\n<p><strong>Co v&aacute;m nab&iacute;z&iacute;me?</strong></p>\n<ul>\n<li>Kontrola životopisu, motivačn&iacute;ho dopisu, LinkedIN profilu aj.</li>\n<li>Př&iacute;pravu na pohovor.</li>\n</ul>\n<p><strong>Jak na assessment centrum?</strong></p>\n<ul>\n<li>Ujasnit si, kter&aacute; pr&aacute;ce je pro v&aacute;s ta prav&aacute;.</li>\n<li>Zmapov&aacute;n&iacute; va&scaron;eho potenci&aacute;lu.</li>\n<li>V&yacute;běr studijn&iacute;ho oboru.</li>\n<li>Dal&scaron;&iacute; tipy pro hled&aacute;n&iacute; pr&aacute;ce a osobn&iacute; rozvoj.</li>\n</ul>\n</div>\n</div>\n<div class=\"et_pb_module et_pb_text et_pb_text_1  et_pb_text_align_left et_pb_bg_layout_light\">\n<div class=\"et_pb_text_inner\">\n<h2 style=\"text-align: center;\"><br />Koučink</h2>\n<p>Koučink je metoda osobn&iacute;ho rozvoje, kter&aacute; v&aacute;m formou strukturovan&eacute;ho rozhovoru pom&aacute;h&aacute; dostat se z m&iacute;sta, kde pr&aacute;vě jste, na m&iacute;sto, kde chcete b&yacute;t. Umožňuje pod&iacute;vat se na svou situaci z v&iacute;ce &uacute;hlů pohledu a naj&iacute;t v sobě to nejlep&scaron;&iacute; ře&scaron;en&iacute; sv&eacute; situace. Spolupr&aacute;ce prob&iacute;h&aacute; formou individu&aacute;ln&iacute;ch sezen&iacute; s koučem.</p>\n<p><strong>Co mohu čekat?</strong></p>\n<p>Prvn&iacute; setk&aacute;n&iacute; je nez&aacute;vazn&eacute;. Společně zjist&iacute;me, zda-li je koučink pro v&aacute;s to prav&eacute; a domluv&iacute;me se na dal&scaron;&iacute;m postupu. Pokud se rozhodnete pokračovat, bude n&aacute;sledovat koučovac&iacute; proces, kter&yacute; v&aacute;m pomůže:</p>\n<ul>\n<li>uvědomit si, co přesně chcete jinak a proč,</li>\n<li>rozhodnout se a nastartovat změnu,</li>\n<li>uvědomit si zn&aacute;m&eacute; nebo objevit nov&eacute; možnosti,</li>\n<li>jak toho dos&aacute;hnout,</li>\n<li>vykročit a vytrvat na zvolen&eacute; cestě.</li>\n</ul>\n<p style=\"text-align: center;\"><strong><br />Domluvte si schůzku:</strong></p>\n<p style=\"text-align: center;\">Ing. Lenka Lapi&scaron;ov&aacute;</p>\n<p><a class=\"button\" href=\"mailto:lenka.lapisova@osu.cz\">lenka.lapisova@osu.cz</a></p>\n<p><a class=\"button\" href=\"https://www.linkedin.com/in/lenka-lapi%C5%A1ov%C3%A1-1677885a/\">LinkedIN</a></p>\n</div>\n</div>",
                        "link": null,
                        "order": 1,
                        "clickable": true,
                        "articleId": 0
                    }
                ],
                "images": [],
                "videos": [],
                "fields": [],
                "fieldItems": [],
                "programs": [],
                "email": null,
                "confirm": null,
                "gdprText": null,
                "latitude": null,
                "longitude": null,
                "code": null,
                "favorites": false,
                "advertisement": {
                    "id": 476,
                    "image": null,
                    "url": "",
                    "position": "bottom",
                    "visibility": false
                }
            },
            {
                "id": 1181,
                "name": "O Univerzitě",
                "type": "page",
                "icon": "ic_office.png",
                "showHeader": true,
                "order": 6,
                "hideImages": 0,
                "link": null,
                "loggedInLink": null,
                "offlineLink": null,
                "externalLink": false,
                "rssLink": null,
                "articles": [],
                "texts": [
                    {
                        "id": 11633,
                        "sectionId": 1181,
                        "content": "<h3 style=\"text-align: center;\">Mise a vize Ostravsk&eacute; univerzity</h3>\n<p>Univerzita s posl&aacute;n&iacute;m, otevřen&aacute; světu, pracuj&iacute;c&iacute; pro region.</p>\n<p>Ostravsk&aacute; univerzita je instituc&iacute;, kter&aacute; svou roli spatřuje v rozv&iacute;jen&iacute; humanitn&iacute;ch, l&eacute;kařsk&yacute;ch, př&iacute;rodovědeck&yacute;ch a uměleck&yacute;ch oborů v regionu tradičně spojovan&eacute;m zejm&eacute;na s průmyslovou a technickou sf&eacute;rou.</p>\n<p>Klade si za c&iacute;l přisp&iacute;vat k ře&scaron;en&iacute; nal&eacute;hav&yacute;ch probl&eacute;mů Moravskoslezsk&eacute;ho kraje v oblastech soci&aacute;ln&iacute;ch, environment&aacute;ln&iacute;ch i zdravotnick&yacute;ch a formovat Ostravu jako skutečn&eacute; univerzitn&iacute; město. Tak&eacute; proto chce nad&aacute;le využ&iacute;vat svůj potenci&aacute;l k reflexi identity, kultury a historie regionu i k jeho kultivaci prostřednictv&iacute;m uměleck&yacute;ch tvůrč&iacute;ch činnost&iacute;.</p>\n<p>Ostravsk&aacute; univerzita je připravena vn&aacute;&scaron;et do region&aacute;ln&iacute;ho prostřed&iacute; progresivn&iacute; tendence evropsk&eacute; vědy a vzdělanosti, stejně jako vytv&aacute;řet př&iacute;zniv&eacute; podm&iacute;nky pro internacion&aacute;ln&iacute; spolupr&aacute;ci a př&iacute;větiv&eacute; prostřed&iacute; pro zahraničn&iacute; akademiky a studenty.</p>\n<p>Univerzita usiluje o to, aby byla instituc&iacute;, kter&aacute; c&iacute;leně podporuje kvalitn&iacute; vědeck&eacute; aktivity a z&aacute;roveň systematicky vyhled&aacute;v&aacute; nov&eacute; v&yacute;zkumn&eacute; oblasti a t&yacute;my s potenci&aacute;lem k dosažen&iacute; excelentn&iacute;ch v&yacute;sledků.</p>\n<p>Ostravsk&aacute; univerzita se otev&iacute;r&aacute; v&yacute;zv&aacute;m soudob&eacute; společnosti a rozv&iacute;j&iacute; zodpovědn&yacute; a individu&aacute;ln&iacute; př&iacute;stup k &scaron;irok&eacute;mu spektru studentů včetně specifick&yacute;ch skupin (senioři, studenti soci&aacute;lně znev&yacute;hodněn&iacute;, studenti se specifick&yacute;mi potřebami). Hl&aacute;s&iacute; se k rovn&eacute;mu př&iacute;stupu ke vzděl&aacute;n&iacute; a ke vstř&iacute;cn&eacute; komunikaci s veřejnost&iacute;.</p>\n<p>&nbsp;</p>",
                        "link": null,
                        "order": 1,
                        "clickable": true,
                        "articleId": 0
                    },
                    {
                        "id": 11631,
                        "sectionId": 1181,
                        "content": "<div id=\"fakulty\" class=\"et_pb_row et_pb_row_3\">\n<div class=\"et_pb_column et_pb_column_4_4 et_pb_column_7  et_pb_css_mix_blend_mode_passthrough et-last-child\">\n<div class=\"et_pb_module et_pb_text et_pb_text_2  et_pb_text_align_left et_pb_bg_layout_light\">\n<div class=\"et_pb_text_inner\">\n<h3 style=\"text-align: center;\">Na&scaron;e fakulty</h3>\n</div>\n</div>\n</div>\n</div>\n<div style=\"text-align: center;\">\n<div class=\"et_pb_row et_pb_row_4 et_pb_row_6col\">\n<div class=\"et_pb_column et_pb_column_1_6 et_pb_column_8  et_pb_css_mix_blend_mode_passthrough\">\n<div class=\"et_pb_module et_pb_image et_pb_image_0\"><span class=\"et_pb_image_wrap \"><a href=\"https://fss.osu.cz/\" target=\"_blank\" rel=\"noopener\"><img class=\"wp-image-66\" title=\"fss\" src=\"https://portalabsolventu.devenio.cz/wp-content/uploads/2020/05/fss.png\" sizes=\"(max-width: 157px) 100vw, 157px\" srcset=\"https://portalabsolventu.devenio.cz/wp-content/uploads/2020/05/fss.png 157w, https://portalabsolventu.devenio.cz/wp-content/uploads/2020/05/fss-150x150.png 150w\" alt=\"\" width=\"auto\" height=\"auto\" /></a></span><a href=\"https://pdf.osu.cz/\" target=\"_blank\" rel=\"noopener\"><span class=\"et_pb_image_wrap \"><img class=\"wp-image-69\" title=\"pdf\" src=\"https://portalabsolventu.devenio.cz/wp-content/uploads/2020/05/pdf.png\" sizes=\"(max-width: 157px) 100vw, 157px\" srcset=\"https://portalabsolventu.devenio.cz/wp-content/uploads/2020/05/pdf.png 157w, https://portalabsolventu.devenio.cz/wp-content/uploads/2020/05/pdf-150x150.png 150w\" alt=\"\" width=\"auto\" height=\"auto\" /></span></a></div>\n</div>\n<div class=\"et_pb_column et_pb_column_1_6 et_pb_column_10  et_pb_css_mix_blend_mode_passthrough\">\n<div class=\"et_pb_module et_pb_image et_pb_image_2\"><span class=\"et_pb_image_wrap \"><a href=\"https://fu.osu.cz/\" target=\"_blank\" rel=\"noopener\"><img class=\"wp-image-67\" title=\"fu\" src=\"https://portalabsolventu.devenio.cz/wp-content/uploads/2020/05/fu.png\" sizes=\"(max-width: 157px) 100vw, 157px\" srcset=\"https://portalabsolventu.devenio.cz/wp-content/uploads/2020/05/fu.png 157w, https://portalabsolventu.devenio.cz/wp-content/uploads/2020/05/fu-150x150.png 150w\" alt=\"\" width=\"auto\" height=\"auto\" /></a></span><a href=\"https://ff.osu.cz/\" target=\"_blank\" rel=\"noopener\"><span class=\"et_pb_image_wrap \"><img class=\"wp-image-65\" title=\"ff\" src=\"https://portalabsolventu.devenio.cz/wp-content/uploads/2020/05/ff.png\" sizes=\"(max-width: 157px) 100vw, 157px\" srcset=\"https://portalabsolventu.devenio.cz/wp-content/uploads/2020/05/ff.png 157w, https://portalabsolventu.devenio.cz/wp-content/uploads/2020/05/ff-150x150.png 150w\" alt=\"\" width=\"auto\" height=\"auto\" /></span></a></div>\n</div>\n<div class=\"et_pb_column et_pb_column_1_6 et_pb_column_12  et_pb_css_mix_blend_mode_passthrough\">\n<div class=\"et_pb_module et_pb_image et_pb_image_4\"><span class=\"et_pb_image_wrap \"><a href=\"https://lf.osu.cz/\" target=\"_blank\" rel=\"noopener\"><img class=\"wp-image-68\" title=\"lf\" src=\"https://portalabsolventu.devenio.cz/wp-content/uploads/2020/05/lf.png\" sizes=\"(max-width: 157px) 100vw, 157px\" srcset=\"https://portalabsolventu.devenio.cz/wp-content/uploads/2020/05/lf.png 157w, https://portalabsolventu.devenio.cz/wp-content/uploads/2020/05/lf-150x150.png 150w\" alt=\"\" width=\"auto\" height=\"auto\" /></a></span><a href=\"https://prf.osu.cz/\" target=\"_blank\" rel=\"noopener\"><span class=\"et_pb_image_wrap \"><img class=\"wp-image-70\" title=\"prf\" src=\"https://portalabsolventu.devenio.cz/wp-content/uploads/2020/05/prf.png\" sizes=\"(max-width: 157px) 100vw, 157px\" srcset=\"https://portalabsolventu.devenio.cz/wp-content/uploads/2020/05/prf.png 157w, https://portalabsolventu.devenio.cz/wp-content/uploads/2020/05/prf-150x150.png 150w\" alt=\"\" width=\"auto\" height=\"auto\" /></span></a></div>\n</div>\n</div>\n</div>",
                        "link": null,
                        "order": 2,
                        "clickable": true,
                        "articleId": 0
                    },
                    {
                        "id": 11634,
                        "sectionId": 1181,
                        "content": "<div id=\"projekty\" class=\"et_pb_row et_pb_row_5\">\n<div class=\"et_pb_column et_pb_column_4_4 et_pb_column_14  et_pb_css_mix_blend_mode_passthrough et-last-child\">\n<div class=\"et_pb_module et_pb_text et_pb_text_3  et_pb_text_align_left et_pb_bg_layout_light\">\n<div class=\"et_pb_text_inner\">\n<h3 style=\"text-align: center;\">Věda</h3>\n<ul>\n<li>Skupiny obyvatel ohrožen&eacute; soci&aacute;ln&iacute;m vyloučen&iacute;m (FSS OU)</li>\n<li>Lidsk&yacute; pohyb a zdrav&iacute; (PDF OU)</li>\n<li>V&yacute;zkum identity m&iacute;st a regionů v literatuře, jazyce a kultuře (FF OU)</li>\n<li>Proměny odborn&eacute;ho diskurzu (FF OU)</li>\n<li>Hospod&aacute;řsk&eacute; a soci&aacute;ln&iacute; dějiny (FF OU)</li>\n<li>V&yacute;zkum středověk&eacute; společnosti a kultury (FF OU)</li>\n<li>Epidemiologick&yacute; v&yacute;zkum (LF OU)</li>\n<li>Monoklon&aacute;ln&iacute; gamapatie a krevn&iacute; n&aacute;dorov&aacute; onemocněn&iacute; (LF OU)</li>\n<li>Genomov&aacute; biologie (PŘF OU)</li>\n<li>Biodiverzita (PŘF OU)</li>\n<li>Geomorfologie, př&iacute;rodn&iacute; hrozby a environment&aacute;ln&iacute; změny (PŘF OU)</li>\n<li>Fuzzy modelov&aacute;n&iacute; (&Uacute;stav pro v&yacute;zkum a aplikace fuzzy modelov&aacute;n&iacute;)</li>\n</ul>\n</div>\n</div>\n</div>\n</div>\n<div id=\"zapojeni\" class=\"et_pb_row et_pb_row_6\">\n<div class=\"et_pb_column et_pb_column_4_4 et_pb_column_15  et_pb_css_mix_blend_mode_passthrough et-last-child\">\n<div class=\"et_pb_module et_pb_text et_pb_text_4  et_pb_text_align_left et_pb_bg_layout_light\">\n<div class=\"et_pb_text_inner\">\n<h3 style=\"text-align: center;\"><br />Kulturn&iacute; a společensk&yacute; život</h3>\n<h3><a href=\"https://alive.osu.cz/dobrovolnici-z-ostravske-zasadi-stromy-za-podane-prihlasky/\" target=\"_blank\" rel=\"noopener noreferrer\"><strong>Za každou přihl&aacute;&scaron;ku vysad&iacute;me strom</strong></a></h3>\n<p>&bdquo;Ovlivni nejen svou budoucnost.&ldquo; Tak zn&iacute; motto aktu&aacute;ln&iacute; kampaně Ostravsk&eacute; univerzity. V jej&iacute;m duchu se proto nese n&aacute;&scaron; z&aacute;vazek &ndash; za každou přihl&aacute;&scaron;ku na leto&scaron;n&iacute; akademick&yacute; rok vysadit jeden nov&yacute; strom tam, kde je jich nejv&iacute;ce potřeba.</p>\n<h3><a href=\"https://lf.osu.cz/25191/studenti-pomahaji-pri-testovaniv-okd/\" target=\"_blank\" rel=\"noopener noreferrer\">Studenti pom&aacute;haj&iacute;</a></h3>\n<p>Studenti pom&aacute;hali během prvn&iacute; vlny pandemie na cel&eacute; řadě projektů.&nbsp;</p>\n<h3>Opern&iacute; studio</h3>\n<p>Opern&iacute; studio Fakulty uměn&iacute; Ostravsk&eacute; univerzity vzniklo v roce 2009 s c&iacute;lem připravit mlad&eacute; talentovan&eacute; studenty do uměleck&eacute; praxe a předat jim praktick&eacute; zku&scaron;enosti při př&iacute;pravě a realizaci opern&iacute;ho představen&iacute;. Jedinečn&aacute; př&iacute;ležitost, kterou je veřejn&aacute; produkce celistv&eacute; opery, umožňuje studentům vyzkou&scaron;et sv&eacute; praktick&eacute; uměleck&eacute; dovednosti na profesion&aacute;ln&iacute; &uacute;rovni před běžn&yacute;m i odborn&yacute;m publikem.</p>\n<h3>GAFU &ndash; Galerie Fakulty uměn&iacute;</h3>\n<p>Galerie Fakulty uměn&iacute; (GAFU) nab&iacute;z&iacute; galerijn&iacute; prostor nejen pro reprezentaci tvorby Fakulty uměn&iacute; OU, ale i pro spolupr&aacute;ci na projektech s dal&scaron;&iacute;mi uměleck&yacute;mi institucemi funguj&iacute;c&iacute;mi na poli současn&eacute;ho uměn&iacute;.&nbsp;</p>\n</div>\n</div>\n</div>\n</div>",
                        "link": null,
                        "order": 3,
                        "clickable": true,
                        "articleId": 0
                    }
                ],
                "images": [
                    {
                        "id": 11632,
                        "sectionId": 1181,
                        "content": "app-data/1041/univerzita.jpg",
                        "link": null,
                        "order": 0,
                        "clickable": true,
                        "articleId": 0
                    }
                ],
                "videos": [],
                "fields": [],
                "fieldItems": [],
                "programs": [],
                "email": null,
                "confirm": null,
                "gdprText": null,
                "latitude": null,
                "longitude": null,
                "code": null,
                "favorites": false,
                "advertisement": {
                    "id": 478,
                    "image": null,
                    "url": "",
                    "position": "bottom",
                    "visibility": false
                }
            },
            {
                "id": 1182,
                "name": "Sociální média",
                "type": "page",
                "icon": "ic_star_o.png",
                "showHeader": true,
                "order": 7,
                "hideImages": 0,
                "link": null,
                "loggedInLink": null,
                "offlineLink": null,
                "externalLink": false,
                "rssLink": null,
                "articles": [],
                "texts": [
                    {
                        "id": 11635,
                        "sectionId": 1182,
                        "content": "<h3 style=\"text-align: center;\">Najdete n&aacute;s na těchto s&iacute;t&iacute;ch:</h3>",
                        "link": null,
                        "order": 1,
                        "clickable": true,
                        "articleId": 0
                    },
                    {
                        "id": 11636,
                        "sectionId": 1182,
                        "content": "<p style=\"text-align: center; margin-bottom: 0px;\"><a class=\"fb\" href=\"https://www.facebook.com/ostravska.univerzita\">FACEBOOK</a></p>\n<p style=\"text-align: center; margin-bottom: 0px;\"><a class=\"instagram\" href=\"https://instagram.com/ostravska_uni\">INSTAGRAM</a></p>\n<p style=\"text-align: center; margin-bottom: 0px;\"><a class=\"youtube\" href=\"https://www.youtube.com/OstravskaUniverzita\">YOUTUBE</a></p>\n<p style=\"text-align: center; margin-bottom: 0px;\"><a class=\"twitter\" href=\"https://twitter.com/Ostravska_Uni\">TWITTER</a></p>\n<p style=\"text-align: center; margin-bottom: 0px;\"><a class=\"linkedin\" href=\"https://www.linkedin.com/company/10516686?trk=tyah&amp;trkInfo=clickedVertical%3Acompany%2CclickedEntityId%3A10516686%2Cidx%3A1-1-1%2CtarId%3A1483719530197%2Ctas%3Aostravsk%C3%A1\">LINKEDIN</a></p>",
                        "link": null,
                        "order": 2,
                        "clickable": true,
                        "articleId": 0
                    }
                ],
                "images": [
                    {
                        "id": 11637,
                        "sectionId": 1182,
                        "content": "app-data/1041/ou-logo.png",
                        "link": null,
                        "order": 0,
                        "clickable": true,
                        "articleId": 0
                    }
                ],
                "videos": [],
                "fields": [],
                "fieldItems": [],
                "programs": [],
                "email": null,
                "confirm": null,
                "gdprText": null,
                "latitude": null,
                "longitude": null,
                "code": null,
                "favorites": false,
                "advertisement": {
                    "id": 479,
                    "image": null,
                    "url": "",
                    "position": "bottom",
                    "visibility": false
                }
            },
            {
                "id": 1183,
                "name": "Kontakt",
                "type": "page",
                "icon": "ic_address_book_o.png",
                "showHeader": true,
                "order": 8,
                "hideImages": 0,
                "link": null,
                "loggedInLink": null,
                "offlineLink": null,
                "externalLink": false,
                "rssLink": null,
                "articles": [],
                "texts": [
                    {
                        "id": 11640,
                        "sectionId": 1183,
                        "content": "<div class=\"et_pb_row et_pb_row_0\">\n<div class=\"et_pb_column et_pb_column_4_4 et_pb_column_0  et_pb_css_mix_blend_mode_passthrough et-last-child\">\n<div class=\"et_pb_module et_pb_text et_pb_text_0  et_pb_text_align_left et_pb_bg_layout_light\">\n<div class=\"et_pb_text_inner\">\n<h2 style=\"text-align: center;\">KONTAKTY PRO ABSOLVENTY</h2>\n</div>\n</div>\n</div>\n</div>\n<div class=\"et_pb_row et_pb_row_1\">\n<div class=\"et_pb_column et_pb_column_4_4 et_pb_column_1  et_pb_css_mix_blend_mode_passthrough et-last-child\">\n<div class=\"et_pb_module et_pb_team_member et_pb_team_member_0 clearfix  et_pb_bg_layout_light\">&nbsp;</div>\n</div>\n</div>",
                        "link": null,
                        "order": 0,
                        "clickable": true,
                        "articleId": 0
                    },
                    {
                        "id": 11639,
                        "sectionId": 1183,
                        "content": "<h3 class=\"et_pb_module_header\" style=\"text-align: center;\">Martin Kop&aacute;ček</h3>\n<p class=\"et_pb_member_position\" style=\"text-align: center;\">specialista pro kontakt s absolventy</p>\n<p><a class=\"button\" href=\"tel:553 46 1343\">tel. 553 46 1343</a></p>\n<p><a class=\"button\" href=\"tel:775 141 143\">mob. 775 141 143</a></p>\n<p><a class=\"button\" href=\"mailto:martin.kopacek@osu.cz\">mail: martin.kopacek@osu.cz</a></p>",
                        "link": null,
                        "order": 2,
                        "clickable": true,
                        "articleId": 0
                    },
                    {
                        "id": 11641,
                        "sectionId": 1183,
                        "content": "<div class=\"et_pb_row et_pb_row_2\">\n<div class=\"et_pb_column et_pb_column_4_4 et_pb_column_2  et_pb_css_mix_blend_mode_passthrough et-last-child\">\n<div class=\"et_pb_module et_pb_text et_pb_text_1  et_pb_text_align_left et_pb_bg_layout_light\">\n<div class=\"et_pb_text_inner\">\n<h2 style=\"text-align: center;\">&nbsp;</h2>\n<h2 style=\"text-align: center;\"><strong>KONTAKTY NA FAKULT&Aacute;CH</strong></h2>\n</div>\n</div>\n</div>\n</div>\n<div class=\"et_pb_row et_pb_row_3\">\n<div class=\"et_pb_column et_pb_column_1_2 et_pb_column_3  et_pb_css_mix_blend_mode_passthrough\">\n<div class=\"et_pb_module et_pb_text et_pb_text_2  et_pb_text_align_left et_pb_bg_layout_light\">\n<div class=\"et_pb_text_inner\">&nbsp;</div>\n</div>\n</div>\n</div>",
                        "link": null,
                        "order": 3,
                        "clickable": true,
                        "articleId": 0
                    },
                    {
                        "id": 11642,
                        "sectionId": 1183,
                        "content": "<div class=\"et_pb_row et_pb_row_3\">\n<div class=\"et_pb_column et_pb_column_1_2 et_pb_column_3  et_pb_css_mix_blend_mode_passthrough\">\n<div class=\"et_pb_module et_pb_text et_pb_text_2  et_pb_text_align_left et_pb_bg_layout_light\">\n<div class=\"et_pb_text_inner\">\n<h2 style=\"text-align: center;\">Př&iacute;rodovědeck&aacute; fakulta OU</h2>\n</div>\n</div>\n</div>\n<div class=\"et_pb_column et_pb_column_1_2 et_pb_column_4  et_pb_css_mix_blend_mode_passthrough et-last-child\" style=\"text-align: center;\">\n<div class=\"et_pb_module et_pb_text et_pb_text_3  et_pb_text_align_left et_pb_bg_layout_light\">\n<div class=\"et_pb_text_inner\">\n<p><a href=\"https://prf.osu.cz/stanislav-janalik/12037/\" target=\"_blank\" rel=\"noopener noreferrer\"><strong>Stanislav Janal&iacute;k</strong></a></p>\n<p><a class=\"button\" href=\"mailto:stanislav.janalik@osu.cz\">mail: stanislav.janalik@osu.cz</a></p>\n</div>\n</div>\n</div>\n</div>\n<div class=\"et_pb_row et_pb_row_4\" style=\"text-align: center;\">\n<div class=\"et_pb_column et_pb_column_1_2 et_pb_column_5  et_pb_css_mix_blend_mode_passthrough\">\n<div class=\"et_pb_module et_pb_text et_pb_text_4  et_pb_text_align_left et_pb_bg_layout_light\">\n<div class=\"et_pb_text_inner\">\n<h2>&nbsp;</h2>\n</div>\n</div>\n</div>\n<div class=\"et_pb_column et_pb_column_1_2 et_pb_column_6  et_pb_css_mix_blend_mode_passthrough et-last-child\">\n<div class=\"et_pb_module et_pb_text et_pb_text_5  et_pb_text_align_left et_pb_bg_layout_light\">\n<div class=\"et_pb_text_inner\">\n<h2>Filozofick&aacute; fakulta OU</h2>\n<p><a href=\"https://prf.osu.cz/stanislav-janalik/12037/\" target=\"_blank\" rel=\"noopener noreferrer\"><strong>Stanislav Janal&iacute;k</strong></a></p>\n<p><a class=\"button\" href=\"mailto:stanislav.janalik@osu.cz\">mail: stanislav.janalik@osu.cz</a></p>\n</div>\n</div>\n</div>\n</div>\n<div class=\"et_pb_row et_pb_row_5\">\n<div class=\"et_pb_column et_pb_column_1_2 et_pb_column_7  et_pb_css_mix_blend_mode_passthrough\" style=\"text-align: center;\">\n<div class=\"et_pb_module et_pb_text et_pb_text_6  et_pb_text_align_left et_pb_bg_layout_light\">\n<div class=\"et_pb_text_inner\">\n<h2>&nbsp;</h2>\n</div>\n</div>\n</div>\n</div>",
                        "link": null,
                        "order": 4,
                        "clickable": true,
                        "articleId": 0
                    }
                ],
                "images": [
                    {
                        "id": 11638,
                        "sectionId": 1183,
                        "content": "app-data/1041/martin-kopacek-1024x674-1.png",
                        "link": null,
                        "order": 1,
                        "clickable": true,
                        "articleId": 0
                    }
                ],
                "videos": [],
                "fields": [],
                "fieldItems": [],
                "programs": [],
                "email": null,
                "confirm": null,
                "gdprText": null,
                "latitude": null,
                "longitude": null,
                "code": null,
                "favorites": false,
                "advertisement": {
                    "id": 480,
                    "image": null,
                    "url": "",
                    "position": "bottom",
                    "visibility": false
                }
            }
        ]
    },
    "error": null
}