{
    "success": true,
    "data": {
        "name": "Ordinace praktika",
        "language": "cs",
        "menuType": 0,
        "menuColumns": 1,
        "headerColor": "#ffffff",
        "headerTextColor": "#444444",
        "menuColor": "#3ab9a9",
        "menuTextColor": "#f2f2f2",
        "contentColor": "#ffffff",
        "contentTextColor": "#333333",
        "bgImage": null,
        "menuHeaderImage": null,
        "logo": "app-data/1029/logo.png",
        "onlyLogo": true,
        "loadingImage": "app-data/1029/c749ec5dc4aad42a10b547e57a5cf1a7-loading-image.jpg",
        "vouchersUse": false,
        "searchUse": false,
        "photoReporterUse": false,
        "photoReporterEmail": null,
        "collapsingHeader": false,
        "showAboutApp": true,
        "showAdClose": true,
        "adMobEnabled": false,
        "androidAdUnitId": null,
        "iosAdUnitId": null,
        "externalLinks": false,
        "customIntroPage": null,
        "loginUrls": null,
        "fbLoginUrls": null,
        "loginPage": false,
        "loginMethods": null,
        "loginText": null,
        "loginColor": "#0086c0",
        "registerText": null,
        "registerColor": "#0086c0",
        "accountDeletionEnabled": false,
        "pinCode": null,
        "favoritesType": "article",
        "favoritesColor": "#ff0000",
        "photoReportApp": false,
        "photoReportAppEmails": null,
        "regionNotificationsEnabled": false,
        "notificationRegions": null,
        "css": "h2 {\n    color: #222222;\n    font-size: 20px;\n}\n\nh3, h4, a {\n    color: #3ab9a9;\n}\n\n.button {\n    margin: 0 auto;\n    display: table;\n    padding: 10px;\n    padding-left: 25px;\n    padding-right: 25px;\n    color: #ffffff;\n    text-align: center;\n    text-decoration: none;\n    font-weight: bold;\n    border-radius: 8px;\n    opacity: 0.9;\n    background-color: #3ab9a9;\n}\n\n.medium-button {\n    display: block;\n    padding: 10px;\n    color: #ffffff;\n    margin-left: 20px;\n    margin-right: 20px;\n    text-align: center;\n    text-decoration: none;\n    font-weight: bold;\n    border-radius: 30px;\n    opacity: 0.9;\n    background-color: #3ab9a9;\n}\n\n.big-button {\n    display: block;\n    padding: 10px;\n    color: #ffffff;\n    text-align: center;\n    text-decoration: none;\n    font-weight: bold;\n    border-radius: 30px;\n    opacity: 0.9;\n    background-color: #3ab9a9;\n}\n\nh4 {\n    font-size: 18px;\n    padding: 4px;\n    margin: 0;\n}\n\nul {\n    list-style: none;\n    padding-left: 20px;\n}\n\nol {\n    padding-left: 25px;\n}\n\nli {\n    margin: 8px 0;\n}\n\nul li::before {\n  content: \"\\2B24\";\n  color: #3ab9a9;\n  font-weight: bold;\n  display: inline-block;\n  font-size: 0.85em;\n  width: 1.5em;\n  margin-left: -1em;\n}\n\n.fb {\n    display: block;\n    background-color: #3B5998;\n    padding: 10px;\n    color: #ffffff;\n    text-align: center;\n    text-decoration: none;\n    font-weight: bold;\n    border-radius: 8px;\n    margin-left: 5px;\n    margin-right: 5px;\n    opacity: 0.9;\n}\n\n.instagram {\n    display: block;\n    background-color: #e4405f;\n    padding: 10px;\n    color: #ffffff;\n    text-align: center;\n    text-decoration: none;\n    font-weight: bold;\n    border-radius: 8px;\n    margin-left: 5px;\n    margin-right: 5px;\n    opacity: 0.9;\n}\n\n.youtube {\n    display: block;\n    background-color: #c4302b;\n    padding: 10px;\n    color: #ffffff;\n    text-align: center;\n    text-decoration: none;\n    font-weight: bold;\n    border-radius: 30px;\n    margin-left: 5px;\n    margin-right: 5px;\n    opacity: 0.9;\n}",
        "advertisement": {
            "id": 307,
            "image": null,
            "url": "",
            "position": "bottom",
            "visibility": false
        },
        "banners": null,
        "sections": [
            {
                "id": 1002,
                "name": "Ordinace praktika",
                "type": "page",
                "visibility": true,
                "icon": "ic_smile_o.png",
                "color": null,
                "regionId": null,
                "showHeader": true,
                "onlyLoggedIn": false,
                "onlyUnloggedIn": false,
                "order": 0,
                "hideImages": 0,
                "link": null,
                "loggedInLink": null,
                "offlineLink": null,
                "externalLink": false,
                "rssLink": null,
                "css": null,
                "articles": [],
                "texts": [
                    {
                        "id": 9703,
                        "sectionId": 1002,
                        "content": "<h1 style=\"text-align: center;\"><span style=\"font-size: 18pt;\">V&iacute;tejte v ordinaci praktika MSK</span></h1>",
                        "link": null,
                        "order": 0,
                        "clickable": true,
                        "articleId": 0
                    },
                    {
                        "id": 9705,
                        "sectionId": 1002,
                        "content": "<p>Jsme modern&iacute; ordinace poskytuj&iacute;c&iacute; plnou p&eacute;či v r&aacute;mci oboru praktick&eacute;ho l&eacute;kaře pro dospěl&eacute;. Fungujeme v oblasti Ostravy a Fr&yacute;dku-M&iacute;stku.Přednost&iacute; na&scaron;&iacute; společnosti je vysok&aacute; &uacute;roveň služeb, poskytov&aacute;n&iacute; pracovně-l&eacute;kařsk&yacute;ch služeb, bohat&eacute; diagnostick&eacute; vybaven&iacute; na vysok&eacute; &uacute;rovni, bezbari&eacute;rov&yacute; - př&iacute;stup do v&scaron;ech poboček a, v neposledn&iacute; řadě, mil&yacute; person&aacute;l. L&eacute;č&iacute;me a indikujeme vy&scaron;etřen&iacute;, kter&aacute; vych&aacute;zej&iacute; z nejnověj&scaron;&iacute;ch poznatků v oblasti medic&iacute;ny.</p>\n<p>Pokud je v&aacute;&scaron; stav stabilizovan&yacute;, je možn&eacute; si pož&aacute;dat o předeps&aacute;n&iacute; dlouhodobě už&iacute;van&yacute;ch l&eacute;ků bez nutnosti ček&aacute;n&iacute; v ordinaci. Recept je možn&eacute; si vyzvednout v domluven&eacute;m term&iacute;nu nebo zaslat na mobiln&iacute; telefon (tzv. eRecept).&nbsp;<strong>Recepty z &uacute;cty k ostatn&iacute;m čekaj&iacute;c&iacute;m pacientům přednostně na počk&aacute;n&iacute; nevystavujeme.</strong></p>\n<p>Vždy je ale nutn&eacute; se dostavit nejm&eacute;ně 1x za 6 měs&iacute;ců na vy&scaron;etřen&iacute; k l&eacute;kaři. Je třeba zkontrolovat v&aacute;&scaron; zdravotn&iacute; stav a znovu posoudit vhodnost pod&aacute;van&yacute;ch l&eacute;ků.</p>",
                        "link": null,
                        "order": 2,
                        "clickable": true,
                        "articleId": 0
                    },
                    {
                        "id": 9706,
                        "sectionId": 1002,
                        "content": "<div class=\"banner\">\n<h3 style=\"text-align: center;\"><span style=\"font-size: 14pt;\"><br /><span style=\"font-size: 18pt;\">Přij&iacute;m&aacute;me nov&eacute; pacienty!</span><br /><br /></span></h3>\n</div>",
                        "link": null,
                        "order": 3,
                        "clickable": true,
                        "articleId": 0
                    },
                    {
                        "id": 9707,
                        "sectionId": 1002,
                        "content": "<p style=\"text-align: center;\"><span style=\"font-size: 14pt;\">ordinace Ostrava</span><br /><span style=\"font-size: 14pt;\"><strong><a href=\"tel:+420778116871\">+420 778&nbsp;116&nbsp;871</a><br /><br /></strong></span></p>",
                        "link": null,
                        "order": 4,
                        "clickable": true,
                        "articleId": 0
                    },
                    {
                        "id": 9708,
                        "sectionId": 1002,
                        "content": "<p style=\"text-align: center;\"><span style=\"font-size: 14pt;\">ordinace Fr&yacute;dek-M&iacute;stek</span><br /><span style=\"font-size: 14pt;\"><strong><a href=\"tel:+420778116872\">+420 778&nbsp;116&nbsp;872</a></strong></span></p>",
                        "link": null,
                        "order": 5,
                        "clickable": true,
                        "articleId": 0
                    },
                    {
                        "id": 9729,
                        "sectionId": 1002,
                        "content": "<h1 style=\"text-align: center;\"><span style=\"font-size: 18pt;\"><br />Co nab&iacute;z&iacute;me</span></h1>",
                        "link": null,
                        "order": 6,
                        "clickable": true,
                        "articleId": 0
                    },
                    {
                        "id": 9730,
                        "sectionId": 1002,
                        "content": "<p>Nab&iacute;z&iacute;me předev&scaron;&iacute;m kvalitn&iacute; p&eacute;či ve vybaven&yacute;ch a modern&iacute;ch prostorech. M&aacute;me funkčn&iacute; objedn&aacute;vkov&yacute; syst&eacute;m, d&iacute;ky kter&eacute;mu nepozn&aacute;te, co je to dlouh&aacute; čekac&iacute; doba. Dokumentaci vedem v&nbsp;<strong>elektronick&eacute; formě</strong>.&nbsp;</p>\n<p>Ček&aacute;n&iacute; si můžete zpř&iacute;jemnit využit&iacute;m&nbsp;<strong>Wi-Fi připojen&iacute;</strong>, sledov&aacute;n&iacute;m televize, občerstven&iacute;m z n&aacute;pojov&yacute;ch automatů a pro děti je připraven dětsk&yacute; koutek.</p>\n<p>Nikdy nem&aacute;me zavřeno, jelikož je ambulance souč&aacute;st&iacute; s&iacute;tě ambulanc&iacute; praktick&yacute;ch l&eacute;kařů společnost&iacute;&nbsp;<strong>Ordinace praktika MSK</strong>. V př&iacute;padě nemoci nebo dovolen&eacute; je l&eacute;kař zastoupen l&eacute;kařem z jin&eacute; pobočky,popř&iacute;padě jste obezn&aacute;men&iacute;, kdo zastupuje l&eacute;kaře. Sestra je vždy př&iacute;tomn&aacute; v ordinaci pro administrativn&iacute; &uacute;kony.&nbsp;</p>",
                        "link": null,
                        "order": 7,
                        "clickable": true,
                        "articleId": 0
                    },
                    {
                        "id": 9733,
                        "sectionId": 1002,
                        "content": "<h1 style=\"text-align: center;\"><span style=\"font-size: 18pt;\"><br />Jak se st&aacute;t klientem</span></h1>",
                        "link": null,
                        "order": 10,
                        "clickable": true,
                        "articleId": 0
                    },
                    {
                        "id": 9734,
                        "sectionId": 1002,
                        "content": "<p>St&aacute;t se&nbsp;<strong>na&scaron;&iacute;m klientem</strong>&nbsp;je velmi jednoduch&eacute;. Mus&iacute;te m&iacute;t pouze&nbsp;<strong>platn&eacute; zdravotn&iacute; poji&scaron;těn&iacute;</strong>. Pokud nem&aacute;te sv&eacute;ho o&scaron;etřuj&iacute;c&iacute;ho l&eacute;kaře,&nbsp;<strong>založ&iacute;me</strong>&nbsp;V&aacute;m novou zdravotn&iacute; dokumentaci. Pokud m&aacute;te sv&eacute;ho l&eacute;kaře, mus&iacute;te u něho b&yacute;t veden&nbsp;<strong>d&eacute;le než tři měs&iacute;ce</strong>. Pot&eacute; už V&aacute;m nic nebr&aacute;n&iacute; st&aacute;t se na&scaron;&iacute;m klientem.</p>\n<p><strong>M&aacute;me smlouvu se zdravotn&iacute;mi poji&scaron;tovnami:&nbsp;</strong></p>\n<p>111 VZP -V&scaron;eobecn&aacute; zdravotn&iacute; poji&scaron;ťovna&nbsp;</p>\n<p>205 ČPZP- Česk&aacute; průmyslov&aacute; zdravotn&iacute; poji&scaron;ťovna&nbsp;</p>\n<p>213 RBP - RBP zdravotn&iacute; poji&scaron;ťovna&nbsp;</p>\n<p>201 VoZP - Vojensk&aacute; zdravotn&iacute; poji&scaron;ťovna&nbsp;</p>\n<p>207 OZP - Oborov&aacute; zdravotn&iacute; poji&scaron;ťovna&nbsp;</p>\n<p>211 ZPMV- Zdravotn&iacute; poji&scaron;ťovna ministerstva vnitra&nbsp;&nbsp;</p>\n<p>SLAVIA poji&scaron;ťovna (poji&scaron;těn&iacute; cizinců)</p>",
                        "link": null,
                        "order": 11,
                        "clickable": true,
                        "articleId": 0
                    },
                    {
                        "id": 9736,
                        "sectionId": 1002,
                        "content": "<h1 style=\"text-align: center;\"><span style=\"font-size: 18pt;\"><br />O zdravotn&iacute; dokumentaci</span></h1>",
                        "link": null,
                        "order": 13,
                        "clickable": true,
                        "articleId": 0
                    },
                    {
                        "id": 9737,
                        "sectionId": 1002,
                        "content": "<p>Pokud si kladete ot&aacute;zku, co se děje s Va&scaron;&iacute;&nbsp;<strong>zdravotn&iacute; dokumentac&iacute;</strong>, tak V&aacute;s můžeme uklidnit, že jej&iacute; převeden&iacute; už je plně v na&scaron;&iacute; režii. Nic nemus&iacute;te nosit, o nic se nemus&iacute;te starat.</p>\n<p>Va&scaron;e zdravotn&iacute; dokumentace je u n&aacute;s&nbsp;<strong>bezpečně uložena</strong>&nbsp;a nehroz&iacute; jej&iacute; zneužit&iacute;. V elektronick&eacute; podobě jsou uchov&aacute;ny ve&scaron;ker&eacute; z&aacute;znamy, včetně v&yacute;sledků odborn&yacute;ch vy&scaron;etřen&iacute;.</p>",
                        "link": null,
                        "order": 14,
                        "clickable": true,
                        "articleId": 0
                    }
                ],
                "images": [
                    {
                        "id": 9704,
                        "sectionId": 1002,
                        "content": "app-data/1029/uvod.jpg",
                        "link": null,
                        "order": 1,
                        "clickable": true,
                        "articleId": 0
                    },
                    {
                        "id": 9732,
                        "sectionId": 1002,
                        "content": "app-data/1029/ordinace-04-dekor.jpg",
                        "link": null,
                        "order": 8,
                        "clickable": true,
                        "articleId": 0
                    },
                    {
                        "id": 9735,
                        "sectionId": 1002,
                        "content": "app-data/1029/ordinace-06-dekor.jpg",
                        "link": null,
                        "order": 12,
                        "clickable": true,
                        "articleId": 0
                    },
                    {
                        "id": 9738,
                        "sectionId": 1002,
                        "content": "app-data/1029/ordinace-02-dekor.jpg",
                        "link": null,
                        "order": 15,
                        "clickable": true,
                        "articleId": 0
                    }
                ],
                "videos": [],
                "fields": [],
                "fieldItems": [],
                "programs": [],
                "email": null,
                "confirm": null,
                "gdprText": null,
                "latitude": null,
                "longitude": null,
                "code": null,
                "pinCode": null,
                "favorites": false,
                "lockScroll": false,
                "advertisement": {
                    "id": 308,
                    "image": null,
                    "url": "",
                    "position": "bottom",
                    "visibility": false
                }
            },
            {
                "id": 1003,
                "name": "O společnosti",
                "type": "page",
                "visibility": true,
                "icon": "ic_star_o.png",
                "color": null,
                "regionId": null,
                "showHeader": true,
                "onlyLoggedIn": false,
                "onlyUnloggedIn": false,
                "order": 1,
                "hideImages": 0,
                "link": null,
                "loggedInLink": null,
                "offlineLink": null,
                "externalLink": false,
                "rssLink": null,
                "css": null,
                "articles": [],
                "texts": [
                    {
                        "id": 9710,
                        "sectionId": 1003,
                        "content": "<h1 style=\"text-align: center;\"><span style=\"font-size: 18pt;\">O společnosti Ordinace praktika MSK</span></h1>",
                        "link": null,
                        "order": 0,
                        "clickable": true,
                        "articleId": 0
                    },
                    {
                        "id": 9711,
                        "sectionId": 1003,
                        "content": "<p>Na&scaron;&iacute; viz&iacute; je poskytovat&nbsp;<strong>kvalitn&iacute; služby</strong>&nbsp;v nov&yacute;ch modern&iacute;ch ordinac&iacute;ch s&nbsp;<strong>kvalifikovan&yacute;m person&aacute;lem</strong>. Přednost&iacute; na&scaron;&iacute; společnosti je s&iacute;ť dvou poboček,&nbsp;<strong>vysok&aacute; &uacute;roveň služeb</strong>, poskytov&aacute;n&iacute; pracovně-l&eacute;kařsk&yacute;ch služeb, bohat&eacute; diagnostick&eacute; vybaven&iacute; na vysok&eacute; &uacute;rovni, bezbari&eacute;rov&yacute; př&iacute;stup do v&scaron;ech poboček a, v neposledn&iacute; řadě, mil&yacute; person&aacute;l.</p>\n<p>Adresa&nbsp;<strong>Ostrava</strong>: <br />Dr. Mart&iacute;nka 1590/6 Ostrava-Hrabůvka 700 30</p>\n<p>Adresa&nbsp;<strong>Fr&yacute;dek-M&iacute;stek</strong>: <br />tř. T.G. Masaryka 495&nbsp;738 01</p>",
                        "link": null,
                        "order": 2,
                        "clickable": true,
                        "articleId": 0
                    }
                ],
                "images": [
                    {
                        "id": 9709,
                        "sectionId": 1003,
                        "content": "app-data/1029/ordinace-03-dekor.jpg",
                        "link": null,
                        "order": 1,
                        "clickable": true,
                        "articleId": 0
                    }
                ],
                "videos": [],
                "fields": [],
                "fieldItems": [],
                "programs": [],
                "email": null,
                "confirm": null,
                "gdprText": null,
                "latitude": null,
                "longitude": null,
                "code": null,
                "pinCode": null,
                "favorites": false,
                "lockScroll": false,
                "advertisement": {
                    "id": 309,
                    "image": null,
                    "url": "",
                    "position": "bottom",
                    "visibility": false
                }
            },
            {
                "id": 1004,
                "name": "Informace",
                "type": "articles",
                "visibility": true,
                "icon": "ic_info_o.png",
                "color": null,
                "regionId": null,
                "showHeader": true,
                "onlyLoggedIn": false,
                "onlyUnloggedIn": false,
                "order": 2,
                "hideImages": 0,
                "link": null,
                "loggedInLink": null,
                "offlineLink": null,
                "externalLink": false,
                "rssLink": null,
                "css": null,
                "articles": [
                    {
                        "id": 1799,
                        "sectionId": 1004,
                        "articleId": null,
                        "customId": 0,
                        "name": "Přenos zdravotní dokumentace vyřídíme za Vás",
                        "link": "",
                        "type": "page",
                        "visibility": true,
                        "hideImages": 0,
                        "order": 1,
                        "articles": []
                    },
                    {
                        "id": 1800,
                        "sectionId": 1004,
                        "articleId": null,
                        "customId": 0,
                        "name": "Pracovní lékařství a prohlídky zaměstnanců",
                        "link": "",
                        "type": "page",
                        "visibility": true,
                        "hideImages": 0,
                        "order": 2,
                        "articles": []
                    },
                    {
                        "id": 1801,
                        "sectionId": 1004,
                        "articleId": null,
                        "customId": 0,
                        "name": "Zdravotnický personál v našich centrech",
                        "link": "",
                        "type": "page",
                        "visibility": true,
                        "hideImages": 0,
                        "order": 3,
                        "articles": []
                    },
                    {
                        "id": 1802,
                        "sectionId": 1004,
                        "articleId": null,
                        "customId": 0,
                        "name": "Nové technologie v moderním prostředí",
                        "link": "",
                        "type": "page",
                        "visibility": true,
                        "hideImages": 0,
                        "order": 4,
                        "articles": []
                    }
                ],
                "texts": [
                    {
                        "id": 9702,
                        "sectionId": 1004,
                        "content": null,
                        "link": null,
                        "order": 0,
                        "clickable": true,
                        "articleId": 0
                    },
                    {
                        "id": 9714,
                        "sectionId": 1004,
                        "content": "<p>Určitě jste již zažili ten nepř&iacute;jemn&yacute; pocit, když&nbsp;<strong>nejste spokojeni</strong>&nbsp;s Va&scaron;&iacute;m o&scaron;etřuj&iacute;c&iacute;m l&eacute;kařem. Když už si najdete nov&eacute;ho praktick&eacute;ho l&eacute;kaře, ře&scaron;&iacute;te&nbsp;<strong>probl&eacute;mov&yacute; převod</strong>&nbsp;Va&scaron;&iacute; zdravotn&iacute; dokumentace. U n&aacute;s V&aacute;m tento probl&eacute;m nehroz&iacute;.</p>\n<p>Pokud je v&aacute;m v&iacute;ce než&nbsp;<strong>15 let</strong>&nbsp;a m&aacute;te platn&eacute; zdravotn&iacute; poji&scaron;těn&iacute;, tak bude stačit občansk&yacute; průkaz a kartička zdravotn&iacute; poji&scaron;ťovny. Př&iacute;jdete kdykoli, v ordinačn&iacute;ch hodin&aacute;ch, do na&scaron;&iacute; pobočky a my V&aacute;m, do&nbsp;<strong>10 minut</strong>, provedeme registraci.</p>\n<p>Převod Va&scaron;&iacute; zdravotn&iacute; dokumentace provedeme ve vlastn&iacute; režii. Registrujeme ml&aacute;dež již od 15 let. Jedinou podm&iacute;nkou je, aby při prvn&iacute; n&aacute;v&scaron;těvě pacienta ve věku&nbsp;<strong>15-17 let</strong>, byl př&iacute;tomen z&aacute;konn&yacute; z&aacute;stupce (např. jeden z rodičů).</p>",
                        "link": null,
                        "order": 2,
                        "clickable": true,
                        "articleId": 1799
                    },
                    {
                        "id": 9716,
                        "sectionId": 1004,
                        "content": "<p>V&scaron;echny na&scaron;e pobočky poskytuj&iacute; služby v oblasti&nbsp;<strong>preventivn&iacute; p&eacute;če</strong>&nbsp;o zaměstnance, tzv.&nbsp;<strong>pracovně-l&eacute;kařsk&eacute; služby</strong>&nbsp;(PLS). Každ&yacute; zaměstnavatel m&aacute; povinnost vyslat sv&eacute; zaměstnance ke sv&eacute;mu z&aacute;vodn&iacute;mu l&eacute;kaři kvůli posouzen&iacute; zdravotn&iacute; způsobilosti k pr&aacute;ci (vstupn&iacute;, preventivn&iacute; a mimoř&aacute;dn&eacute; prohl&iacute;dky).</p>\n<p>Tato&nbsp;<strong>povinnost</strong>&nbsp;plat&iacute; při zaměstn&aacute;v&aacute;n&iacute;&nbsp;<strong>1 nebo v&iacute;ce</strong>&nbsp;zaměstnanců.</p>\n<p>Prov&aacute;d&iacute;me dohled na pracovi&scaron;ti a &scaron;kolen&iacute; prvn&iacute; pomoci. Zabezpečujeme&nbsp;<strong>PLS</strong>&nbsp;pro zaměstnavatele v kategori&iacute;ch&nbsp;<strong>I až IV</strong>, včetně specializovan&yacute;ch vy&scaron;etřen&iacute; a odborn&yacute;ch vy&scaron;etřen&iacute; (ORL, RTG).</p>\n<p>Na&scaron;e společnost a jednotliv&eacute; pobočky jsou vybaveny n&aacute;sleduj&iacute;c&iacute; technikou:</p>\n<ul>\n<li><strong>EKG&nbsp;</strong>- př&iacute;stroj k měřen&iacute; srdečn&iacute; činnosti;</li>\n<li><strong>Spirometr</strong>&nbsp;- př&iacute;stroj k měřen&iacute; a stanoven&iacute; funkce plic;</li>\n<li><strong>Audiometr</strong>&nbsp;- př&iacute;stroj k určen&iacute; ztr&aacute;ty sluchu;</li>\n<li><strong>EMG</strong>-měřen&iacute; elektrick&eacute; aktivity svalu a nervu pom&aacute;h&aacute; určit př&iacute;tomnost po&scaron;kozen&iacute; svalov&eacute; tk&aacute;ně nebo nervu;</li>\n<li><strong>Chladov&eacute; testy a pletysmograf</strong>&nbsp;- postup, kdy se měř&iacute; prokrven&iacute; prstů v rozd&iacute;ln&yacute;ch teplot&aacute;ch.</li>\n</ul>\n<p>Pro v&iacute;ce informac&iacute; pros&iacute;m kontaktujte pověřenou osobu PhDr. Ivu Pelik&aacute;novou<br />Na e-mailu&nbsp;<a href=\"mailto:provozni@ordinacepraktika.cz\">provozni@ordinacepraktika.cz</a>&nbsp;</p>\n<ul>\n<li>Pozn&aacute;mka: Chladov&eacute; testy a pletysmografie se moment&aacute;lně prov&aacute;d&iacute; jen na pobočce v Ostravě.&nbsp;</li>\n</ul>",
                        "link": null,
                        "order": 4,
                        "clickable": true,
                        "articleId": 1800
                    },
                    {
                        "id": 9718,
                        "sectionId": 1004,
                        "content": "<p>Na&scaron;e společnost a jednotliv&eacute; pobočky jsou&nbsp;<strong>vybaveny n&aacute;sleduj&iacute;c&iacute; technikou</strong>:</p>\n<ul>\n<li><strong>CRP</strong>&nbsp;- př&iacute;stroj k měřen&iacute; z&aacute;nětliv&yacute;ch procesů v těle;</li>\n<li><strong>Glukometr</strong>&nbsp;- k stanoven&iacute; hladiny gluk&oacute;zy v krvi;</li>\n<li><strong>INR</strong>&nbsp;- př&iacute;stroj k určen&iacute; hladiny warfarinu;</li>\n<li><strong>EKG</strong>&nbsp;- př&iacute;stroj k měřen&iacute; srdečn&iacute; činnosti;</li>\n<li><strong>Spirometr</strong>&nbsp;- př&iacute;stroj k měřen&iacute; a stanoven&iacute; funkce plic;</li>\n<li><strong>Audiometr</strong>&nbsp;- př&iacute;stroj k určen&iacute; ztr&aacute;ty sluchu;</li>\n<li><strong>Oxymetr</strong>&nbsp;- př&iacute;stroj ke stanoven&iacute; množstv&iacute; kysl&iacute;ku v krvi;</li>\n<li><strong>STREP-test</strong>&nbsp;- stanoven&iacute; př&iacute;tomnosti streptokokov&eacute; infekce;</li>\n<li><strong>Močov&yacute; analyz&aacute;tor</strong>&nbsp;- měř&iacute; tyto parametry: Leukocyty, Nitrity, Urobilinogen, Protein, pH, Krev, Specifickou hmotnost, Ketony, Bilirubin, Gluk&oacute;zu, Mikroalbumin, Kreatinin;</li>\n<li><strong>EMG</strong>-měřen&iacute; elektrick&eacute; aktivity svalu a nervu pom&aacute;h&aacute; určit př&iacute;tomnost po&scaron;kozen&iacute; svalov&eacute; tk&aacute;ně nebo nervu;</li>\n<li><strong>Chladov&eacute; testy a pletysmograf</strong>&nbsp;- postup, kdy se měř&iacute; prokrven&iacute; prstů v rozd&iacute;ln&yacute;ch teplot&aacute;ch.</li>\n</ul>",
                        "link": null,
                        "order": 6,
                        "clickable": true,
                        "articleId": 1802
                    },
                    {
                        "id": 9720,
                        "sectionId": 1004,
                        "content": "<p>V na&scaron;&iacute;ch ordinac&iacute;ch praktick&eacute;ho l&eacute;kaře V&aacute;m nab&iacute;z&iacute;me/poskytujeme l&eacute;kařskou pomoc&nbsp;<strong>pět dn&iacute; v t&yacute;dnu</strong>.</p>\n<p>Na těchto pobočk&aacute;ch pracuj&iacute; atestovan&iacute; l&eacute;kaři s dlouholetou prax&iacute; a odbornou způsobilost&iacute;. Mil&eacute; zdravotn&iacute; sestry s mnoha odborn&yacute;mi zku&scaron;enostmi se V&aacute;m&nbsp;<strong>budou věnovat</strong>&nbsp;s porozuměn&iacute;m a &uacute;směvem na tv&aacute;ři.</p>\n<p>ORDINACE PRAKTIKA MSK V&aacute;m nab&iacute;z&iacute;&nbsp;<strong>komplexn&iacute; služby</strong>&nbsp;spojen&eacute; s l&eacute;čebnou a preventivn&iacute; p&eacute;či v oboru&nbsp;<strong>V&scaron;eobecn&eacute; praktick&eacute; l&eacute;kařstv&iacute;</strong>. Souč&aacute;st&iacute; komplexn&iacute; l&eacute;čebn&eacute; a preventivn&iacute; p&eacute;če zaji&scaron;ťujeme poradenstv&iacute;, kter&eacute; se zaměřuje na civilizačn&iacute; choroby a z&aacute;sady spr&aacute;vn&eacute; v&yacute;živy a životospr&aacute;vy.</p>\n<p><strong>Ostrava&nbsp;</strong></p>\n<ul>\n<li><strong>MUDr. Jozef Csip&aacute;k&nbsp;</strong></li>\n<li><strong>MUDr. Bohumila Kaplanov&aacute;&nbsp;</strong></li>\n<li><strong>Dagmar Rakytov&aacute; - zdravotn&iacute; sestra&nbsp;</strong></li>\n<li><strong>PhDr. Iva Pelik&aacute;nov&aacute; - zdravotn&iacute; sestra&nbsp;&nbsp;</strong></li>\n</ul>\n<p><strong>Fr&yacute;dek-M&iacute;stek&nbsp;</strong></p>\n<ul>\n<li><strong>MUDr. Gabriela Rappov&aacute;&nbsp;</strong></li>\n<li><strong>Jana Kuchařov&aacute; - zdravotn&iacute; sestra&nbsp;&nbsp;</strong></li>\n</ul>",
                        "link": null,
                        "order": 8,
                        "clickable": true,
                        "articleId": 1801
                    }
                ],
                "images": [
                    {
                        "id": 9712,
                        "sectionId": 1004,
                        "content": "app-data/1029/subheader.jpg",
                        "link": null,
                        "order": 0,
                        "clickable": true,
                        "articleId": 0
                    },
                    {
                        "id": 9713,
                        "sectionId": 1004,
                        "content": "app-data/1029/ordinace-01-dekor.jpg",
                        "link": null,
                        "order": 1,
                        "clickable": true,
                        "articleId": 1799
                    },
                    {
                        "id": 9715,
                        "sectionId": 1004,
                        "content": "app-data/1029/ordinace-03-dekor.jpg",
                        "link": null,
                        "order": 3,
                        "clickable": true,
                        "articleId": 1800
                    },
                    {
                        "id": 9717,
                        "sectionId": 1004,
                        "content": "app-data/1029/ordinace-05-dekor.jpg",
                        "link": null,
                        "order": 5,
                        "clickable": true,
                        "articleId": 1802
                    },
                    {
                        "id": 9719,
                        "sectionId": 1004,
                        "content": "app-data/1029/ordinace-02-dekor.jpg",
                        "link": null,
                        "order": 7,
                        "clickable": true,
                        "articleId": 1801
                    }
                ],
                "videos": [],
                "fields": [],
                "fieldItems": [],
                "programs": [],
                "email": null,
                "confirm": null,
                "gdprText": null,
                "latitude": null,
                "longitude": null,
                "code": null,
                "pinCode": null,
                "favorites": false,
                "lockScroll": false,
                "advertisement": {
                    "id": 319,
                    "image": null,
                    "url": "",
                    "position": "bottom",
                    "visibility": false
                }
            },
            {
                "id": 1009,
                "name": "Fotogalerie",
                "type": "page",
                "visibility": true,
                "icon": "ic_photo.png",
                "color": null,
                "regionId": null,
                "showHeader": true,
                "onlyLoggedIn": false,
                "onlyUnloggedIn": false,
                "order": 3,
                "hideImages": 0,
                "link": null,
                "loggedInLink": null,
                "offlineLink": null,
                "externalLink": false,
                "rssLink": null,
                "css": null,
                "articles": [],
                "texts": [
                    {
                        "id": 9721,
                        "sectionId": 1009,
                        "content": "<h3 class=\"midle\" style=\"text-align: center;\">Interi&eacute;ry na&scaron;ich ordinac&iacute; a ček&aacute;rren</h3>",
                        "link": null,
                        "order": 1,
                        "clickable": true,
                        "articleId": 0
                    }
                ],
                "images": [
                    {
                        "id": 9722,
                        "sectionId": 1009,
                        "content": "app-data/1029/ordinace-01-big.jpg",
                        "link": null,
                        "order": 2,
                        "clickable": true,
                        "articleId": 0
                    },
                    {
                        "id": 9724,
                        "sectionId": 1009,
                        "content": "app-data/1029/ordinace-02-big.jpg",
                        "link": null,
                        "order": 4,
                        "clickable": true,
                        "articleId": 0
                    },
                    {
                        "id": 9725,
                        "sectionId": 1009,
                        "content": "app-data/1029/ordinace-03-big.jpg",
                        "link": null,
                        "order": 5,
                        "clickable": true,
                        "articleId": 0
                    },
                    {
                        "id": 9726,
                        "sectionId": 1009,
                        "content": "app-data/1029/ordinace-04-big.jpg",
                        "link": null,
                        "order": 6,
                        "clickable": true,
                        "articleId": 0
                    },
                    {
                        "id": 9727,
                        "sectionId": 1009,
                        "content": "app-data/1029/ordinace-05-big.jpg",
                        "link": null,
                        "order": 7,
                        "clickable": true,
                        "articleId": 0
                    },
                    {
                        "id": 9728,
                        "sectionId": 1009,
                        "content": "app-data/1029/ordinace-06-big.jpg",
                        "link": null,
                        "order": 8,
                        "clickable": true,
                        "articleId": 0
                    }
                ],
                "videos": [],
                "fields": [],
                "fieldItems": [],
                "programs": [],
                "email": null,
                "confirm": null,
                "gdprText": null,
                "latitude": null,
                "longitude": null,
                "code": null,
                "pinCode": null,
                "favorites": false,
                "lockScroll": false,
                "advertisement": {
                    "id": 314,
                    "image": null,
                    "url": "",
                    "position": "bottom",
                    "visibility": false
                }
            },
            {
                "id": 1012,
                "name": "Noví klienti",
                "type": "page",
                "visibility": true,
                "icon": "ic_persons.png",
                "color": null,
                "regionId": null,
                "showHeader": true,
                "onlyLoggedIn": false,
                "onlyUnloggedIn": false,
                "order": 4,
                "hideImages": 0,
                "link": null,
                "loggedInLink": null,
                "offlineLink": null,
                "externalLink": false,
                "rssLink": null,
                "css": null,
                "articles": [],
                "texts": [
                    {
                        "id": 9741,
                        "sectionId": 1012,
                        "content": "<h1 style=\"text-align: center;\"><span style=\"font-size: 18pt;\">Chci se st&aacute;t klientem</span></h1>",
                        "link": null,
                        "order": 1,
                        "clickable": true,
                        "articleId": 0
                    },
                    {
                        "id": 9742,
                        "sectionId": 1012,
                        "content": "<p>Na&scaron;&iacute;m klientem se můžete st&aacute;t, je-li V&aacute;m v&iacute;ce než&nbsp;<strong>15 let</strong>&nbsp;a m&aacute;te platn&eacute; zdravotn&iacute; poji&scaron;těn&iacute;. K registraci bude stačit občansk&yacute; průkaz a kartička zdravotn&iacute; poji&scaron;ťovny.</p>\n<p>Dostav&iacute;te se kdykoliv, v ordinačn&iacute;ch hodin&aacute;ch, na na&scaron;i pobočku a my v&aacute;m, do&nbsp;<strong>10 minut</strong>, provedeme registraci.</p>\n<p>Jedinou podm&iacute;nkou je, že při prvn&iacute; n&aacute;v&scaron;těvě pacienta ve věku&nbsp;<strong>15-17 let</strong>, se dotyčn&yacute; mus&iacute; dostavit v doprovodu z&aacute;konn&eacute;ho z&aacute;stupce (např. jednoho z rodičů).</p>\n<p>St&aacute;t se na&scaron;&iacute;m klientem je velmi jednoduch&eacute;. Mus&iacute;te m&iacute;t pouze platn&eacute; zdravotn&iacute; poji&scaron;těn&iacute;. Pokud nem&aacute;te sv&eacute;ho o&scaron;etřuj&iacute;c&iacute;ho l&eacute;kaře, založ&iacute;me V&aacute;m novou zdravotn&iacute; dokumentaci. Pokud m&aacute;te sv&eacute;ho l&eacute;kaře, mus&iacute;te u něho b&yacute;t veden d&eacute;le než tři měs&iacute;ce. Pot&eacute; už V&aacute;m nic nebr&aacute;n&iacute; st&aacute;t se na&scaron;&iacute;m klientem.</p>\n<p><strong>M&aacute;me smlouvu se zdravotn&iacute;mi poji&scaron;tovnami:</strong>&nbsp;</p>\n<p>111 VZP -V&scaron;eobecn&aacute; zdravotn&iacute; poji&scaron;ťovna&nbsp;</p>\n<p>205 ČPZP- Česk&aacute; průmyslov&aacute; zdravotn&iacute; poji&scaron;ťovna&nbsp;</p>\n<p>213 RBP - RBP zdravotn&iacute; poji&scaron;ťovna&nbsp;</p>\n<p>201 VoZP - Vojensk&aacute; zdravotn&iacute; poji&scaron;ťovna&nbsp;</p>\n<p>207 OZP - Oborov&aacute; zdravotn&iacute; poji&scaron;ťovna&nbsp;</p>\n<p>211 ZPMV- Zdravotn&iacute; poji&scaron;ťovna ministerstva vnitra &nbsp;</p>\n<p>SLAVIA poji&scaron;ťovna (poji&scaron;těn&iacute; cizinců)&nbsp;</p>",
                        "link": null,
                        "order": 2,
                        "clickable": true,
                        "articleId": 0
                    },
                    {
                        "id": 9744,
                        "sectionId": 1012,
                        "content": "<h1 style=\"text-align: center;\"><span style=\"font-size: 18pt;\"><br />Vstupn&iacute; prohl&iacute;dka</span></h1>",
                        "link": null,
                        "order": 4,
                        "clickable": true,
                        "articleId": 0
                    },
                    {
                        "id": 9745,
                        "sectionId": 1012,
                        "content": "<p>Vstupn&iacute; prohl&iacute;dka se prov&aacute;d&iacute; u každ&eacute;ho nově registrovan&eacute;ho klienta.&nbsp;<strong>Tato prohl&iacute;dka je zdarma</strong>.</p>\n<p>Sestra zkontroluje zrak a sluch, změř&iacute; tlak, v&yacute;&scaron;ku a v&aacute;hu. U klientů star&scaron;&iacute;ch&nbsp;<strong>40 let</strong>&nbsp;se měř&iacute;&nbsp;<strong>EKG</strong>. D&aacute;le je pacient vy&scaron;etřen l&eacute;kařem, kter&yacute; s n&iacute;m projde jeho aktu&aacute;ln&iacute; zdravotn&iacute; stav.</p>\n<p>N&aacute;sledně se provedou kompletn&iacute;&nbsp;<strong>odběry krve a moči dle indikace l&eacute;kaře</strong>. V př&iacute;padě nutnosti dal&scaron;&iacute;ch odborn&yacute;ch vy&scaron;etřen&iacute; jsou V&aacute;m vystaveny ž&aacute;danky na dal&scaron;&iacute; specializovan&aacute; vy&scaron;etřen&iacute; (neurolog, ortoped, kožn&iacute;).</p>\n<p>Po uskutečněn&iacute; vstupn&iacute; prohl&iacute;dky jste zvan&iacute; po dvou letech na&nbsp;<strong>preventivn&iacute; prohl&iacute;dku</strong>. Nebojte se, tento term&iacute;n za V&aacute;s pohl&iacute;d&aacute;me a d&aacute;me V&aacute;m vědět SMS zpr&aacute;vou.&nbsp;</p>",
                        "link": null,
                        "order": 5,
                        "clickable": true,
                        "articleId": 0
                    },
                    {
                        "id": 9747,
                        "sectionId": 1012,
                        "content": "<p style=\"text-align: center; margin-top: 30px; margin-bottom: 30px;\"><a class=\"button\" href=\"https://www.ordinacepraktika.cz/clanek/pozadavek-na-registraci\">Požadavek na registraci</a></p>",
                        "link": null,
                        "order": 7,
                        "clickable": true,
                        "articleId": 0
                    }
                ],
                "images": [
                    {
                        "id": 9743,
                        "sectionId": 1012,
                        "content": "app-data/1029/ordinace-03-dekor.jpg",
                        "link": null,
                        "order": 3,
                        "clickable": true,
                        "articleId": 0
                    },
                    {
                        "id": 9746,
                        "sectionId": 1012,
                        "content": "app-data/1029/uvod.jpg",
                        "link": null,
                        "order": 6,
                        "clickable": true,
                        "articleId": 0
                    }
                ],
                "videos": [],
                "fields": [],
                "fieldItems": [],
                "programs": [],
                "email": null,
                "confirm": null,
                "gdprText": null,
                "latitude": null,
                "longitude": null,
                "code": null,
                "pinCode": null,
                "favorites": false,
                "lockScroll": false,
                "advertisement": {
                    "id": 317,
                    "image": null,
                    "url": "",
                    "position": "bottom",
                    "visibility": false
                }
            },
            {
                "id": 1013,
                "name": "Stávájící klienti",
                "type": "page",
                "visibility": true,
                "icon": "ic_group.png",
                "color": null,
                "regionId": null,
                "showHeader": true,
                "onlyLoggedIn": false,
                "onlyUnloggedIn": false,
                "order": 5,
                "hideImages": 0,
                "link": null,
                "loggedInLink": null,
                "offlineLink": null,
                "externalLink": false,
                "rssLink": null,
                "css": null,
                "articles": [],
                "texts": [
                    {
                        "id": 9748,
                        "sectionId": 1013,
                        "content": "<h1 style=\"text-align: center;\"><span style=\"font-size: 18pt;\">On-line služby</span></h1>",
                        "link": null,
                        "order": 1,
                        "clickable": true,
                        "articleId": 0
                    },
                    {
                        "id": 9749,
                        "sectionId": 1013,
                        "content": "<p>V r&aacute;mci&nbsp;<strong>modern&iacute; veden&iacute;</strong>&nbsp;ordinace jsme schopni prov&eacute;st&nbsp;<strong>on-line</strong>:</p>\n<ul>\n<li>Zas&iacute;l&aacute;n&iacute;&nbsp;<strong>elektronick&eacute;ho receptu</strong>&nbsp;př&iacute;mo na mobiln&iacute; telefon nebo do e-mailu&nbsp;</li>\n<li>Samozřejmost&iacute; je pr&aacute;ce s&nbsp;<strong>E-neschopenkou&nbsp;</strong></li>\n<li>Zas&iacute;l&aacute;n&iacute;&nbsp;<strong>informačn&iacute;ch SMS</strong>&nbsp;zpr&aacute;v (pozv&aacute;nka na preventivn&iacute; prohl&iacute;dku, př&iacute;jem va&scaron;&iacute; zdravotn&iacute; dokumentace od přede&scaron;l&eacute;ho l&eacute;kaře, aj.)&nbsp;</li>\n<li><strong>Objedn&aacute;n&iacute; zdravotnick&eacute;ho materi&aacute;lu</strong>&nbsp;(inkontinenčn&iacute; pomůcky, aj) a zaji&scaron;těn&iacute; dovozu př&iacute;mo do va&scaron;eho bydli&scaron;tě</li>\n<li>kontrolu&nbsp;<strong>evidence občana</strong>&nbsp;u dan&eacute; zdravotn&iacute; poji&scaron;ťovny, včetně&nbsp;<strong>identifikace</strong>&nbsp;posledn&iacute;ho o&scaron;etřuj&iacute;c&iacute;ho l&eacute;kaře</li>\n</ul>",
                        "link": null,
                        "order": 2,
                        "clickable": true,
                        "articleId": 0
                    },
                    {
                        "id": 9751,
                        "sectionId": 1013,
                        "content": "<h1 style=\"text-align: center;\"><span style=\"font-size: 18pt;\"><br />L&eacute;kař rad&iacute;</span></h1>",
                        "link": null,
                        "order": 4,
                        "clickable": true,
                        "articleId": 0
                    },
                    {
                        "id": 9752,
                        "sectionId": 1013,
                        "content": "<p><strong>KL&Iacute;&Scaron;ŤOV&Aacute; ENCEFALITIDA: PROČ SE NECHAT OČKOVAT?</strong></p>\n<p>Co je mal&eacute;, nemus&iacute; b&yacute;t vždy mil&eacute; - kl&iacute;&scaron;ťov&aacute; encefalitida je virov&eacute; onemocněn&iacute; mozku a mozkov&yacute;ch plen, přen&aacute;&scaron;en&eacute; přis&aacute;t&iacute;m nakažen&eacute;ho kl&iacute;&scaron;těte. U vět&scaron;iny infikovan&yacute;ch pacientů nen&iacute; onemocněn&iacute; na prvn&iacute; pohled zřejm&eacute;, a ani pacient ho na sobě nemus&iacute; zaznamenat. Průběh nemoci je dvouf&aacute;zov&yacute;. Prvn&iacute; f&aacute;ze, kter&aacute; nast&aacute;v&aacute; asi po 10 dnech, připom&iacute;n&aacute; lehkou chřipku. Člověk nepociťuje ž&aacute;dn&eacute; dal&scaron;&iacute; pot&iacute;že. V druh&eacute; f&aacute;zi nastupuje bolest hlavy, teplota, ztuhnut&iacute; &scaron;&iacute;je a z&aacute;vratě. N&aacute;kaza může v&eacute;st až k nervov&eacute; obrně. N&aacute;sledky prodělan&eacute;ho onemocněn&iacute; se nejz&aacute;važněji projevuj&iacute; předev&scaron;&iacute;m u dospěl&yacute;ch. U seniorů přitom může m&iacute;t až fat&aacute;ln&iacute; n&aacute;sledky. Nemoci lze &uacute;činně předch&aacute;zet pouze preventivn&iacute;m očkov&aacute;n&iacute;m.</p>\n<p>Očkov&aacute;n&iacute; samotn&eacute; je t&eacute;měř bezbolestn&eacute;. Na vakc&iacute;nu je možn&eacute; využ&iacute;t př&iacute;spěvěk od zdravotn&iacute; poji&scaron;ťovny. Vakc&iacute;ny pro&nbsp;<strong>rok 2020&nbsp;</strong>jsou k dispozici v na&scaron;&iacute; ordinaci a očkov&aacute;n&iacute; lze prov&eacute;st kdykoliv.</p>\n<p><strong>V př&iacute;padě dal&scaron;&iacute;ch dotazů nev&aacute;hejte a kontaktujte n&aacute;s na telefonn&iacute;m č&iacute;sle dle Va&scaron;&iacute; pobočky.</strong></p>",
                        "link": null,
                        "order": 5,
                        "clickable": true,
                        "articleId": 0
                    },
                    {
                        "id": 9754,
                        "sectionId": 1013,
                        "content": "<h1 style=\"text-align: center;\"><span style=\"font-size: 18pt;\"><br />Př&iacute;spěvky klientů</span></h1>",
                        "link": null,
                        "order": 7,
                        "clickable": true,
                        "articleId": 0
                    },
                    {
                        "id": 9755,
                        "sectionId": 1013,
                        "content": "<p>Reakce na&scaron;ich klientů na dotaz ohledně spokojenosti s na&scaron;imi službami.</p>\n<p><strong>Janca</strong><br />\"Prozat&iacute;m nic, jsem zcela spokojena\"</p>\n<p><strong>Květoslava</strong><br />\"Jste super, co v&iacute;c dodat.\"</p>\n<p><strong>Dagmar</strong><br />\"Bez připom&iacute;nek.\"</p>\n<p><strong>Ivana</strong><br />\"Zat&iacute;m 100% spokojenost.\"</p>\n<p><strong>Ladislav</strong><br />\"S person&aacute;lem jsem spokojen. Pan doktor vystupuje profesion&aacute;lně a sv&eacute; pr&aacute;ci rozum&iacute;. Potě&scaron;il mě i d&aacute;rek při registraci.\"</p>",
                        "link": null,
                        "order": 8,
                        "clickable": true,
                        "articleId": 0
                    }
                ],
                "images": [
                    {
                        "id": 9750,
                        "sectionId": 1013,
                        "content": "app-data/1029/ordinace-01-dekor.jpg",
                        "link": null,
                        "order": 3,
                        "clickable": true,
                        "articleId": 0
                    },
                    {
                        "id": 9753,
                        "sectionId": 1013,
                        "content": "app-data/1029/ordinace-06-dekor.jpg",
                        "link": null,
                        "order": 6,
                        "clickable": true,
                        "articleId": 0
                    },
                    {
                        "id": 9756,
                        "sectionId": 1013,
                        "content": "app-data/1029/ordinace-04-dekor.jpg",
                        "link": null,
                        "order": 9,
                        "clickable": true,
                        "articleId": 0
                    }
                ],
                "videos": [],
                "fields": [],
                "fieldItems": [],
                "programs": [],
                "email": null,
                "confirm": null,
                "gdprText": null,
                "latitude": null,
                "longitude": null,
                "code": null,
                "pinCode": null,
                "favorites": false,
                "lockScroll": false,
                "advertisement": {
                    "id": 318,
                    "image": null,
                    "url": "",
                    "position": "bottom",
                    "visibility": false
                }
            },
            {
                "id": 1010,
                "name": "Časté dotazy",
                "type": "page",
                "visibility": true,
                "icon": "ic_books.png",
                "color": null,
                "regionId": null,
                "showHeader": true,
                "onlyLoggedIn": false,
                "onlyUnloggedIn": false,
                "order": 6,
                "hideImages": 0,
                "link": null,
                "loggedInLink": null,
                "offlineLink": null,
                "externalLink": false,
                "rssLink": null,
                "css": null,
                "articles": [],
                "texts": [
                    {
                        "id": 9740,
                        "sectionId": 1010,
                        "content": "<p><strong>Jsem registrovan&yacute; u jin&eacute;ho praktick&eacute;ho l&eacute;kaře nebo &uacute;plně bez praktick&eacute;ho l&eacute;kaře. Mus&iacute;m si don&eacute;st svou zdravotn&iacute; dokumentaci?<br /></strong>Nemus&iacute;te, zař&iacute;d&iacute;me přesun zdravotn&iacute; dokumentace za V&aacute;s.</p>\n<p><strong>Potřebuji potvrzen&iacute; pro zbrojn&iacute; pas, řidičsk&yacute; průkaz, &uacute;řad pr&aacute;ce, domov pro seniory, můžete mi ho vystavit?</strong><br />Ano, pro na&scaron;e registrovan&eacute; klienty tato potvrzen&iacute; vystavujeme.</p>\n<p><strong>Lze se do ordinace objednat na konkr&eacute;tn&iacute; čas?</strong><br />Ano, telefonicky či e-mailem.&nbsp;</p>\n<p><strong>Lze se do Va&scaron;&iacute; ordinace dostat i s koč&aacute;rkem, voz&iacute;kem?</strong><br />Ano, do v&scaron;ech na&scaron;&iacute;ch ordinac&iacute; je zř&iacute;zen bezbari&eacute;rov&yacute; př&iacute;stup.</p>\n<p><strong>Lze ve Va&scaron;&iacute; ordinaci platit kreditn&iacute;mi kartami?</strong><br />Ne, do budoucna pl&aacute;nujeme tuto službu zav&eacute;st na na&scaron;&iacute;ch pobočk&aacute;ch.&nbsp;</p>\n<p><strong>Zdravotnick&aacute; dokumentace a změna poskytovatele zdravotn&iacute;ch služeb, co bude s moj&iacute; zdravotn&iacute; kartou?</strong></p>\n<p>Z&aacute;kon č. 372/2011 Sb. o zdravotn&iacute;ch služb&aacute;ch stanovuje, že v př&iacute;padě změny poskytovatele zdravotn&iacute;ch služeb je dosavadn&iacute; l&eacute;kař povinen předat nově zvolen&eacute;mu l&eacute;kaři v&scaron;echny informace potřebn&eacute; pro zaji&scaron;těn&iacute; n&aacute;vaznosti v&scaron;ech zdravotn&iacute;ch a soci&aacute;ln&iacute;ch služeb poskytovan&yacute;ch pacientovi. Mělo by se tak d&iacute;t zasl&aacute;n&iacute;m v&yacute;pisu ze zdravotnick&eacute; dokumentace či jejich kopi&iacute;. Naopak origin&aacute;l zdravotn&iacute; dokumentace by v ž&aacute;dn&eacute;m př&iacute;padě neměl putovat s pacientem k nov&eacute;mu l&eacute;kaři, neboť přede&scaron;l&yacute; poskytovatel m&aacute; povinnost ji uchovat. Z&aacute;kon nestanov&iacute; ž&aacute;dnou lhůtu, v n&iacute;ž maj&iacute; b&yacute;t informace před&aacute;ny nov&eacute;mu poskytovateli, ale v z&aacute;jmu zaji&scaron;těn&iacute; p&eacute;če by tak mělo b&yacute;t učiněno co nejdř&iacute;ve.</p>",
                        "link": null,
                        "order": 2,
                        "clickable": true,
                        "articleId": 0
                    }
                ],
                "images": [
                    {
                        "id": 9739,
                        "sectionId": 1010,
                        "content": "app-data/1029/ordinace-02-dekor.jpg",
                        "link": null,
                        "order": 1,
                        "clickable": true,
                        "articleId": 0
                    }
                ],
                "videos": [],
                "fields": [],
                "fieldItems": [],
                "programs": [],
                "email": null,
                "confirm": null,
                "gdprText": null,
                "latitude": null,
                "longitude": null,
                "code": null,
                "pinCode": null,
                "favorites": false,
                "lockScroll": false,
                "advertisement": {
                    "id": 315,
                    "image": null,
                    "url": "",
                    "position": "bottom",
                    "visibility": false
                }
            },
            {
                "id": 1011,
                "name": "Napište nám",
                "type": "form",
                "visibility": true,
                "icon": "ic_edit.png",
                "color": null,
                "regionId": null,
                "showHeader": true,
                "onlyLoggedIn": false,
                "onlyUnloggedIn": false,
                "order": 7,
                "hideImages": 0,
                "link": null,
                "loggedInLink": null,
                "offlineLink": null,
                "externalLink": false,
                "rssLink": null,
                "css": null,
                "articles": [],
                "texts": [],
                "images": [],
                "videos": [],
                "fields": [
                    {
                        "id": 533,
                        "sectionId": 1011,
                        "name": "Potřebujete se na něco zeptat? Neváhejte nás kontaktovat.",
                        "type": "title",
                        "required": false,
                        "order": 1
                    },
                    {
                        "id": 534,
                        "sectionId": 1011,
                        "name": "Jméno a příjmení",
                        "type": "text",
                        "required": true,
                        "order": 2
                    },
                    {
                        "id": 535,
                        "sectionId": 1011,
                        "name": "E-mail",
                        "type": "text",
                        "required": true,
                        "order": 3
                    },
                    {
                        "id": 536,
                        "sectionId": 1011,
                        "name": "Telefonní číslo",
                        "type": "text",
                        "required": false,
                        "order": 4
                    },
                    {
                        "id": 537,
                        "sectionId": 1011,
                        "name": "Upřesnění Vaší poptávky",
                        "type": "textarea",
                        "required": true,
                        "order": 5
                    }
                ],
                "fieldItems": [],
                "programs": [],
                "email": "provozni@ordinacepraktika.cz",
                "confirm": "Odeslat",
                "gdprText": "Odesláním formuláře souhlasíte se <a href='https://www.appkee-manager.cz/personal-data-protection/'>zpracováním osobních údajů</a>",
                "latitude": null,
                "longitude": null,
                "code": null,
                "pinCode": null,
                "favorites": false,
                "lockScroll": false,
                "advertisement": {
                    "id": 316,
                    "image": null,
                    "url": "",
                    "position": "bottom",
                    "visibility": false
                }
            },
            {
                "id": 1005,
                "name": "Ostrava",
                "type": "page",
                "visibility": true,
                "icon": "ic_city.png",
                "color": null,
                "regionId": null,
                "showHeader": true,
                "onlyLoggedIn": false,
                "onlyUnloggedIn": false,
                "order": 8,
                "hideImages": 0,
                "link": null,
                "loggedInLink": null,
                "offlineLink": null,
                "externalLink": false,
                "rssLink": null,
                "css": null,
                "articles": [],
                "texts": [
                    {
                        "id": 9758,
                        "sectionId": 1005,
                        "content": "<p>Ambulance praktick&eacute;ho l&eacute;kaře v&nbsp;<strong>Ostravě Hrabůvce v OC &Scaron;pal&iacute;ček</strong>&nbsp;na ulici Dr. Mart&iacute;nka 1590/6, ve&nbsp;<strong>2. patře</strong>. V nově zrekonstruovan&yacute;ch bezbari&eacute;rov&yacute;ch prostorech do&scaron;lo k vytvořen&iacute; ambulance, včetně z&aacute;zem&iacute;. M&aacute;me&nbsp;<strong>bezbari&eacute;rov&eacute;</strong>&nbsp;WC, velkou ček&aacute;rnu, dětsk&yacute; koutek pro maminky s dětmi a automat na vodu. V are&aacute;lu OC &Scaron;pal&iacute;ček je bezbari&eacute;rov&aacute; rampa.</p>\n<p>Do Ordinace Praktika MSK se pohodlně dostanete&nbsp;<strong>osobn&iacute;m autem</strong>. V okol&iacute; are&aacute;lu se nach&aacute;z&iacute; rozlehl&eacute; plochy s&nbsp;<strong>parkovac&iacute;mi m&iacute;sty</strong>. Lze využ&iacute;t MHD, v bl&iacute;zkosti jsou zast&aacute;vky tramvajov&eacute; i autobusov&eacute; dopravy.</p>\n<p>V are&aacute;lu obchodn&iacute;ho centra &Scaron;pal&iacute;ček je um&iacute;stěn&aacute;&nbsp;<strong>l&eacute;k&aacute;rna</strong>, prodejny a 600 metrů od ambulance praktick&eacute;ho l&eacute;kaře se nach&aacute;z&iacute;&nbsp;<strong>Poliklinika</strong>&nbsp;Hrabůvka. V Poliklinice Hrabůvka lze využ&iacute;t odborn&eacute; ambulance k odborn&yacute;m vy&scaron;etřen&iacute;m.<br /><br /></p>",
                        "link": null,
                        "order": 1,
                        "clickable": true,
                        "articleId": 0
                    },
                    {
                        "id": 9760,
                        "sectionId": 1005,
                        "content": "<p style=\"text-align: center; margin-bottom: 0px;\"><a class=\"fb\" href=\"https://www.facebook.com/Ordinace-Praktika-MSK-Ostrava-100940628307761/\">FACEBOOK</a></p>",
                        "link": null,
                        "order": 2,
                        "clickable": true,
                        "articleId": 0
                    },
                    {
                        "id": 9759,
                        "sectionId": 1005,
                        "content": "<p><strong><br />Provozn&iacute; doba sester Ľubom&iacute;ra Dominov&aacute;/PhDr. Iva Pelik&aacute;nov&aacute;/Dagmar Rakytov&aacute;</strong>&nbsp;<br />PO:&nbsp; 07:00 - 18:00 hod.<br />&Uacute;T:&nbsp; &nbsp;07:00 - 15:30 hod.<br />ST:&nbsp; &nbsp;07:00 - 15:30 hod.<br />ČT:&nbsp; &nbsp;07:00 - 15:30 hod.<br />P&Aacute;:&nbsp; &nbsp;07:00 - 15:30 hod.</p>\n<p>Od 7-8 hod&nbsp;<strong>odběry</strong></p>\n<p>7-9 hod&nbsp;<strong>AKUTN&Iacute; př&iacute;pady</strong>&nbsp;</p>\n<p><strong><br />Ordinačn&iacute; doba: MUDr. Jozef Csip&aacute;k</strong><br />PO:&nbsp; 07:00 - 18:00 hod. (15:30-18 hod pouze na objedn&aacute;n&iacute;/dom&aacute;c&iacute; p&eacute;če)&nbsp;<br />&Uacute;T:&nbsp; &nbsp;07:00 - 15:30 hod.<br />ST:&nbsp; &nbsp;07:00 - 15:30 hod.<br />ČT:&nbsp; &nbsp;07:00 - 15:30 hod.<br />P&Aacute;:&nbsp; &nbsp;07:00 - 15:30 hod.</p>\n<p><strong><br />Ordinačn&iacute; doba: MUDr. Bohumila Kaplanov&aacute;</strong><br />-na mateřsk&eacute; dovolen&eacute;&nbsp;</p>\n<p><strong><br />Pracovn&iacute; l&eacute;kařstv&iacute;: MUDr. Jozef Csip&aacute;k</strong>&nbsp;<br />PO:&nbsp; 10:00 - 18:00 hod.<br />&Uacute;T:&nbsp; &nbsp;10:00 - 15:30 hod.<br />ST:&nbsp; &nbsp;10:00 - 15:30 hod.<br />ČT:&nbsp; &nbsp;10:00 - 15:30 hod.<br />P&Aacute;:&nbsp; &nbsp;10:00 - 15:30 hod.</p>",
                        "link": null,
                        "order": 3,
                        "clickable": true,
                        "articleId": 0
                    }
                ],
                "images": [
                    {
                        "id": 9757,
                        "sectionId": 1005,
                        "content": "app-data/1029/uvod.jpg",
                        "link": null,
                        "order": 0,
                        "clickable": true,
                        "articleId": 0
                    }
                ],
                "videos": [],
                "fields": [],
                "fieldItems": [],
                "programs": [],
                "email": null,
                "confirm": null,
                "gdprText": null,
                "latitude": null,
                "longitude": null,
                "code": null,
                "pinCode": null,
                "favorites": false,
                "lockScroll": false,
                "advertisement": {
                    "id": 310,
                    "image": null,
                    "url": "",
                    "position": "bottom",
                    "visibility": false
                }
            },
            {
                "id": 1006,
                "name": "Frýdek-Místek",
                "type": "page",
                "visibility": true,
                "icon": "ic_office.png",
                "color": null,
                "regionId": null,
                "showHeader": true,
                "onlyLoggedIn": false,
                "onlyUnloggedIn": false,
                "order": 9,
                "hideImages": 0,
                "link": null,
                "loggedInLink": null,
                "offlineLink": null,
                "externalLink": false,
                "rssLink": null,
                "css": null,
                "articles": [],
                "texts": [
                    {
                        "id": 9762,
                        "sectionId": 1006,
                        "content": "<p>Ambulance praktick&eacute;ho l&eacute;kaře ve&nbsp;<strong>Fr&yacute;dku-M&iacute;stku</strong>&nbsp;se nach&aacute;z&iacute; v&nbsp;<strong>Krevn&iacute;m centru</strong>&nbsp;na ulici tř. T. G. Masaryka 495, ve&nbsp;<strong>4. patře</strong>. V nově&nbsp;zrekonstruovan&yacute;ch&nbsp;bezbari&eacute;rov&yacute;ch prostorech do&scaron;lo k vytvořen&iacute; nov&eacute;&nbsp;<strong>modern&iacute; ambulance</strong>. Zde se nach&aacute;z&iacute; bezbari&eacute;rov&eacute; WC, ček&aacute;rna, dětsk&yacute; koutek pro maminky s&nbsp;dětmi.</p>\n<p>Ve spolupr&aacute;ci s&nbsp;Krevn&iacute;m centrem můžeme nab&iacute;dnout&nbsp;<strong>rychl&eacute; vyhodnocen&iacute; v&yacute;sledků</strong>. V&nbsp;are&aacute;lu budovy se nach&aacute;z&iacute; l&eacute;k&aacute;rna a parkovac&iacute; plocha př&iacute;mo před budovou. V&nbsp;přilehl&eacute; ulici je parkovac&iacute; plocha, kter&aacute; je zpoplatněn&aacute;.<br /><br /></p>",
                        "link": null,
                        "order": 2,
                        "clickable": true,
                        "articleId": 0
                    },
                    {
                        "id": 9763,
                        "sectionId": 1006,
                        "content": "<p style=\"text-align: center; margin-bottom: 0px;\"><a class=\"fb\" href=\"https://www.facebook.com/Ordinace-Praktika-MSK-Fr%C3%BDdek-M%C3%ADstek-109443164113762/\">FACEBOOK</a></p>",
                        "link": null,
                        "order": 3,
                        "clickable": true,
                        "articleId": 0
                    },
                    {
                        "id": 9764,
                        "sectionId": 1006,
                        "content": "<p><strong><br />Provozn&iacute; doba sester: Jana Kuchařov&aacute;</strong>&nbsp;</p>\n<p>PO: 07:00 -15:00 hod.<br />&Uacute;T: 07:00 - 15:00 hod.<br />ST: 07:00 - 18:00 hod.<br />ČT: 07:00 - 14:00 hod.<br />P&Aacute;: 07:00 - 13:00 hod.</p>\n<p><strong><br />Ordinačn&iacute; doba: MUDr. Gabriela Rappov&aacute;</strong></p>\n<p>PO: 07:00 - 13:00 hod.<br />&Uacute;T: 07:00 - 13:00 hod.<br />ST: 12:00 - 18:00 hod.(pouze na objedn&aacute;n&iacute;)&nbsp;<br />ČT: 07:00 - 13:00 hod.<br />P&Aacute;: 07:00 - 13:00 hod.</p>\n<p><strong>Mezi 7-10 hod akutn&iacute; př&iacute;pady&nbsp;&nbsp;</strong></p>\n<p><strong>Od 10 hod pouze objednan&iacute;&nbsp;</strong></p>\n<p><strong><br />Pracovn&iacute; l&eacute;kařstv&iacute;: MUDr. Gabriela Rappov&aacute;/&nbsp;<br />Mudr. Jozef Csip&aacute;k</strong>&nbsp;</p>\n<p>PO: 10:00 - 13:00 hod.<br />&Uacute;T: 10:00 - 13:00 hod.<br />ST: 12:00 - 18:00 hod.<br />ČT: 10:00 - 13:00 hod.<br />P&Aacute;: 10:00 - 13:00 hod.</p>",
                        "link": null,
                        "order": 4,
                        "clickable": true,
                        "articleId": 0
                    }
                ],
                "images": [
                    {
                        "id": 9761,
                        "sectionId": 1006,
                        "content": "app-data/1029/uvod.jpg",
                        "link": null,
                        "order": 1,
                        "clickable": true,
                        "articleId": 0
                    }
                ],
                "videos": [],
                "fields": [],
                "fieldItems": [],
                "programs": [],
                "email": null,
                "confirm": null,
                "gdprText": null,
                "latitude": null,
                "longitude": null,
                "code": null,
                "pinCode": null,
                "favorites": false,
                "lockScroll": false,
                "advertisement": {
                    "id": 311,
                    "image": null,
                    "url": "",
                    "position": "bottom",
                    "visibility": false
                }
            },
            {
                "id": 1007,
                "name": "Kontakt",
                "type": "page",
                "visibility": true,
                "icon": "ic_address_book_o.png",
                "color": null,
                "regionId": null,
                "showHeader": true,
                "onlyLoggedIn": false,
                "onlyUnloggedIn": false,
                "order": 10,
                "hideImages": 0,
                "link": null,
                "loggedInLink": null,
                "offlineLink": null,
                "externalLink": false,
                "rssLink": null,
                "css": null,
                "articles": [],
                "texts": [
                    {
                        "id": 9766,
                        "sectionId": 1007,
                        "content": "<p style=\"text-align: center;\"><em>N&aacute;zev společnosti:</em><strong><br />Ordinace praktika MSK s.r.o.</strong><br />Jiř&iacute;ho Herolda 1618/5<br />Ostrava-Bělsk&yacute; Les, 700 30<br />IČ: 29399505<br />DIČ: CZ29399505&nbsp;</p>",
                        "link": null,
                        "order": 1,
                        "clickable": true,
                        "articleId": 0
                    },
                    {
                        "id": 9767,
                        "sectionId": 1007,
                        "content": "<p style=\"text-align: center; margin-bottom: 0px;\"><a class=\"button\" href=\"mailto:provozni@ordinacepraktika.cz\">provozni@ordinacepraktika.cz </a></p>",
                        "link": null,
                        "order": 2,
                        "clickable": true,
                        "articleId": 0
                    },
                    {
                        "id": 9768,
                        "sectionId": 1007,
                        "content": "<p style=\"text-align: center;\"><strong>Korespondenčn&iacute; adresa</strong>:<br />Ordinace praktika MSK s.r.o.<br />Dr. Mart&iacute;nka 1590/6,<br />Ostrava-Hrabůvka, 700 30</p>",
                        "link": null,
                        "order": 3,
                        "clickable": true,
                        "articleId": 0
                    },
                    {
                        "id": 9769,
                        "sectionId": 1007,
                        "content": "<h3 style=\"text-align: center;\"><strong><br /><br />Ordinace Ostrava:</strong></h3>\n<p style=\"text-align: center;\"><strong>Dr. Mart&iacute;nka 1590/6 Ostrava-Hrabůvka 700 30 (OC &Scaron;pal&iacute;ček).<br /></strong></p>",
                        "link": null,
                        "order": 4,
                        "clickable": true,
                        "articleId": 0
                    },
                    {
                        "id": 9770,
                        "sectionId": 1007,
                        "content": "<p style=\"text-align: center; margin-bottom: 0px;\"><a class=\"button\" href=\"tel:+420 778 116 871\">+420 778 116 871</a></p>\n<p style=\"text-align: center; margin-bottom: 0px;\"><a class=\"button\" href=\"mailto:ov@ordinacepraktika.cz\">ov@ordinacepraktika.cz</a></p>",
                        "link": null,
                        "order": 5,
                        "clickable": true,
                        "articleId": 0
                    },
                    {
                        "id": 9773,
                        "sectionId": 1007,
                        "content": "<p><iframe style=\"border: 0;\" tabindex=\"0\" src=\"https://www.google.com/maps/embed?pb=!1m18!1m12!1m3!1d2576.083557694648!2d18.260108316280014!3d49.78449357938912!2m3!1f0!2f0!3f0!3m2!1i1024!2i768!4f13.1!3m3!1m2!1s0x4713e4cbfb1e223b%3A0x4101d7bfd3f65393!2sDr.%20Mart%C3%ADnka%201590%2F6%2C%20700%2030%20Ostrava-jih-Hrab%C5%AFvka!5e0!3m2!1scs!2scz!4v1587975363735!5m2!1scs!2scz\" width=\"100%\" height=\"250\" frameborder=\"0\" allowfullscreen=\"\" aria-hidden=\"false\"></iframe></p>",
                        "link": null,
                        "order": 6,
                        "clickable": true,
                        "articleId": 0
                    },
                    {
                        "id": 9771,
                        "sectionId": 1007,
                        "content": "<h3 style=\"text-align: center;\"><strong><br /><br />Ordinace Fr&yacute;dek-M&iacute;stek:</strong></h3>\n<p style=\"text-align: center;\"><strong>Tř. T.G. Masaryka 495 Fr&yacute;dek-M&iacute;stek 738 01 (Krevn&iacute; centrum).<br /></strong></p>",
                        "link": null,
                        "order": 7,
                        "clickable": true,
                        "articleId": 0
                    },
                    {
                        "id": 9772,
                        "sectionId": 1007,
                        "content": "<p style=\"text-align: center; margin-bottom: 0px;\"><a class=\"button\" href=\"tel:+420 778 116 872\">+420 778 116 872</a></p>\n<p style=\"text-align: center; margin-bottom: 0px;\"><a class=\"button\" href=\"mailto:fm@ordinacepraktika.cz\">fm@ordinacepraktika.cz</a></p>",
                        "link": null,
                        "order": 8,
                        "clickable": true,
                        "articleId": 0
                    },
                    {
                        "id": 9774,
                        "sectionId": 1007,
                        "content": "<p><iframe style=\"border: 0;\" tabindex=\"0\" src=\"https://www.google.com/maps/embed?pb=!1m18!1m12!1m3!1d2581.4500915411154!2d18.352941016277594!3d49.683496379377054!2m3!1f0!2f0!3f0!3m2!1i1024!2i768!4f13.1!3m3!1m2!1s0x4713f73dc29c270b%3A0x22f79c05e6dc3954!2zdMWZLiBULiBHLiBNYXNhcnlrYSA0OTUsIEZyw71kZWssIDczOCAwMSBGcsO9ZGVrLU3DrXN0ZWs!5e0!3m2!1scs!2scz!4v1587975302018!5m2!1scs!2scz\" width=\"100%\" height=\"250\" frameborder=\"0\" allowfullscreen=\"\" aria-hidden=\"false\"></iframe></p>",
                        "link": null,
                        "order": 9,
                        "clickable": true,
                        "articleId": 0
                    }
                ],
                "images": [
                    {
                        "id": 9765,
                        "sectionId": 1007,
                        "content": "app-data/1029/subheader.jpg",
                        "link": null,
                        "order": 0,
                        "clickable": true,
                        "articleId": 0
                    }
                ],
                "videos": [],
                "fields": [],
                "fieldItems": [],
                "programs": [],
                "email": null,
                "confirm": null,
                "gdprText": null,
                "latitude": null,
                "longitude": null,
                "code": null,
                "pinCode": null,
                "favorites": false,
                "lockScroll": false,
                "advertisement": {
                    "id": 312,
                    "image": null,
                    "url": "",
                    "position": "bottom",
                    "visibility": false
                }
            }
        ]
    },
    "error": null
}